\relax 
\providecommand\hyper@newdestlabel[2]{}
\providecommand\BKM@entry[2]{}
\providecommand\zref@newlabel[2]{}
\providecommand*{\memsetcounter}[2]{}
\providecommand\HyperFirstAtBeginDocument{\AtBeginDocument}
\HyperFirstAtBeginDocument{\ifx\hyper@anchor\@undefined
\global\let\oldcontentsline\contentsline
\gdef\contentsline#1#2#3#4{\oldcontentsline{#1}{#2}{#3}}
\global\let\oldnewlabel\newlabel
\gdef\newlabel#1#2{\newlabelxx{#1}#2}
\gdef\newlabelxx#1#2#3#4#5#6{\oldnewlabel{#1}{{#2}{#3}}}
\AtEndDocument{\ifx\hyper@anchor\@undefined
\let\contentsline\oldcontentsline
\let\newlabel\oldnewlabel
\fi}
\fi}
\global\let\hyper@last\relax 
\gdef\HyperFirstAtBeginDocument#1{#1}
\providecommand\HyField@AuxAddToFields[1]{}
\providecommand\HyField@AuxAddToCoFields[2]{}
\catcode`"\active
\citation{abnt-url-package=url}
\providecommand\acro@used@once[4]{}
\providecommand\acro@used@twice[4]{}
\providecommand\acro@pages[2]{}
\providecommand\acro@rerun@check{}
\@writefile{toc}{\changetocdepth  {4}}
\select@language{brazil}
\@writefile{toc}{\select@language{brazil}}
\@writefile{lof}{\select@language{brazil}}
\@writefile{lot}{\select@language{brazil}}
\BKM@entry{id=1,dest={6368617074657262312E30},srcline={311}}{466F6C686120646520726F73746F}
\BKM@entry{id=2,dest={6368617074657262322E30},srcline={2}}{526573756D6F}
\citation{larman2000utilizando}
\@writefile{brf}{\backcite{larman2000utilizando}{{3}{(document)}{Doc-Start}}}
\BKM@entry{id=3,dest={6368617074657262332E30},srcline={1}}{4162737472616374}
\citation{larman2000utilizando}
\@writefile{brf}{\backcite{larman2000utilizando}{{5}{(document)}{Doc-Start}}}
\BKM@entry{id=4,dest={6C6F662E30},srcline={350}}{4C6973746120646520696C75737472615C3334375C3336356573}
\citation{uml25}
\citation{sommerville2003engenharia}
\citation{sommerville2003engenharia}
\citation{fuggetta1993classification}
\citation{fuggetta1993classification}
\citation{gonzalez2010processamento}
\citation{gonzalez2010processamento}
\citation{gonzalez2010processamento}
\@writefile{toc}{\setlength  {\cftchapterindent }{\cftlastnumwidth } \setlength  {\cftchapternumwidth }{2em}}
\acro@used@once{UML}{7}{7}{9}
\@@wrindexm@m{monografia}{UML@{UML}|hyperpage}{7}
\@writefile{brf}{\backcite{uml25}{{7}{(document)}{Doc-Start}}}
\acro@used@once{case}{7}{7}{9}
\@@wrindexm@m{monografia}{case@{CASE}|hyperpage}{7}
\@writefile{brf}{\backcite{sommerville2003engenharia}{{7}{(document)}{Doc-Start}}}
\@writefile{brf}{\backcite{sommerville2003engenharia}{{7}{(document)}{Doc-Start}}}
\@writefile{brf}{\backcite{fuggetta1993classification}{{7}{(document)}{Doc-Start}}}
\@writefile{brf}{\backcite{fuggetta1993classification}{{7}{(document)}{Doc-Start}}}
\@writefile{brf}{\backcite{gonzalez2010processamento}{{7}{(document)}{Doc-Start}}}
\@writefile{brf}{\backcite{gonzalez2010processamento}{{7}{(document)}{Doc-Start}}}
\@writefile{brf}{\backcite{gonzalez2010processamento}{{7}{(document)}{Doc-Start}}}
\acro@used@once{pu}{7}{7}{9}
\@@wrindexm@m{monografia}{pu@{PU}|hyperpage}{7}
\acro@used@once{xml}{7}{7}{9}
\@@wrindexm@m{monografia}{xml@{XML}|hyperpage}{7}
\BKM@entry{id=5,dest={6C6F742E30},srcline={355}}{4C6973746120646520746162656C6173}
\@writefile{toc}{\setlength  {\cftchapterindent }{\cftlastnumwidth } \setlength  {\cftchapternumwidth }{2em}}
\BKM@entry{id=6,dest={6C6F612E30},srcline={367}}{4C69737461206465207369676C6173}
\acro@print@list
\@writefile{toc}{\setlength  {\cftchapterindent }{\cftlastnumwidth } \setlength  {\cftchapternumwidth }{2em}}
\BKM@entry{id=7,dest={746F632E30},srcline={381}}{53756D5C33343172696F}
\@writefile{toc}{\setlength  {\cftchapterindent }{\cftlastnumwidth } \setlength  {\cftchapternumwidth }{2em}}
\acro@used@twice{case}{13}{13}{15}
\@@wrindexm@m{monografia}{case@{CASE}|hyperpage}{13}
\acro@used@twice{pu}{13}{13}{15}
\@@wrindexm@m{monografia}{pu@{PU}|hyperpage}{13}
\acro@used@once{opencv}{13}{13}{15}
\@@wrindexm@m{monografia}{opencv@{Open CV}|hyperpage}{13}
\BKM@entry{id=8,dest={636861707465722E31},srcline={2}}{496E74726F64755C3334375C3334336F}
\citation{larman2000utilizando}
\citation{larman2000utilizando}
\citation{booch2000uml}
\citation{costagliola2014local}
\citation{hammond2006tahuti}
\BKM@entry{id=9,dest={73656374696F6E2E312E31},srcline={15}}{4D6F746976615C3334375C3334336F}
\citation{wuest2013flexisketch}
\@writefile{toc}{\setlength  {\cftchapterindent }{0em} \setlength  {\cftchapternumwidth }{\cftlastnumwidth }}
\@writefile{toc}{\contentsline {chapter}{\chapternumberline {1}\MakeTextUppercase  {Introdu\IeC {\c c}\IeC {\~a}o}}{15}{chapter.1}}
\newlabel{introducao}{{1}{15}{Introdução}{chapter.1}{}}
\@writefile{brf}{\backcite{larman2000utilizando}{{15}{1}{chapter.1}}}
\acro@used@twice{UML}{15}{15}{17}
\@@wrindexm@m{monografia}{UML@{UML}|hyperpage}{15}
\acro@used@twice{UML}{15}{15}{17}
\@@wrindexm@m{monografia}{UML@{UML}|hyperpage}{15}
\@writefile{brf}{\backcite{larman2000utilizando}{{15}{1}{chapter.1}}}
\acro@used@twice{UML}{15}{15}{17}
\@@wrindexm@m{monografia}{UML@{UML}|hyperpage}{15}
\acro@used@twice{UML}{15}{15}{17}
\@@wrindexm@m{monografia}{UML@{UML}|hyperpage}{15}
\@writefile{brf}{\backcite{booch2000uml}{{15}{1}{chapter.1}}}
\acro@used@twice{UML}{15}{15}{17}
\@@wrindexm@m{monografia}{UML@{UML}|hyperpage}{15}
\acro@used@twice{UML}{15}{15}{17}
\@@wrindexm@m{monografia}{UML@{UML}|hyperpage}{15}
\@writefile{brf}{\backcite{costagliola2014local}{{15}{1}{chapter.1}}}
\@writefile{brf}{\backcite{hammond2006tahuti}{{15}{1}{chapter.1}}}
\@writefile{toc}{\contentsline {section}{\numberline {1.1}Motiva\IeC {\c c}\IeC {\~a}o}{15}{section.1.1}}
\@writefile{brf}{\backcite{wuest2013flexisketch}{{15}{1.1}{section.1.1}}}
\BKM@entry{id=10,dest={73656374696F6E2E312E32},srcline={24}}{4F626A657469766F}
\acro@used@twice{case}{16}{16}{18}
\@@wrindexm@m{monografia}{case@{CASE}|hyperpage}{16}
\acro@used@twice{case}{16}{16}{18}
\@@wrindexm@m{monografia}{case@{CASE}|hyperpage}{16}
\acro@used@twice{case}{16}{16}{18}
\@@wrindexm@m{monografia}{case@{CASE}|hyperpage}{16}
\acro@used@twice{case}{16}{16}{18}
\@@wrindexm@m{monografia}{case@{CASE}|hyperpage}{16}
\@writefile{toc}{\contentsline {section}{\numberline {1.2}Objetivo}{16}{section.1.2}}
\acro@used@twice{UML}{16}{16}{18}
\@@wrindexm@m{monografia}{UML@{UML}|hyperpage}{16}
\acro@used@twice{case}{16}{16}{18}
\@@wrindexm@m{monografia}{case@{CASE}|hyperpage}{16}
\BKM@entry{id=11,dest={73656374696F6E2E312E33},srcline={34}}{4D65746F646F6C6F676961}
\BKM@entry{id=12,dest={73656374696F6E2E312E34},srcline={47}}{4F7267616E697A615C3334375C3334336F20646F2054726162616C686F}
\acro@used@once{xmi}{17}{17}{19}
\@@wrindexm@m{monografia}{xmi@{XMI}|hyperpage}{17}
\@writefile{toc}{\contentsline {section}{\numberline {1.3}Metodologia}{17}{section.1.3}}
\acro@used@twice{UML}{17}{17}{19}
\@@wrindexm@m{monografia}{UML@{UML}|hyperpage}{17}
\acro@used@twice{UML}{17}{17}{19}
\@@wrindexm@m{monografia}{UML@{UML}|hyperpage}{17}
\acro@used@twice{case}{17}{17}{19}
\@@wrindexm@m{monografia}{case@{CASE}|hyperpage}{17}
\@writefile{toc}{\contentsline {section}{\numberline {1.4}Organiza\IeC {\c c}\IeC {\~a}o do Trabalho}{17}{section.1.4}}
\BKM@entry{id=13,dest={636861707465722E32},srcline={2}}{46756E64616D656E74615C3334375C3334336F2054655C33363372696361}
\BKM@entry{id=14,dest={73656374696F6E2E322E31},srcline={6}}{4C696E67756167656D20556E69666963616461206465204D6F64656C6167656D}
\citation{booch2000uml}
\citation{booch2000uml}
\@writefile{toc}{\setlength  {\cftchapterindent }{0em} \setlength  {\cftchapternumwidth }{\cftlastnumwidth }}
\@writefile{toc}{\contentsline {chapter}{\chapternumberline {2}\MakeTextUppercase  {Fundamenta\IeC {\c c}\IeC {\~a}o Te\IeC {\'o}rica}}{19}{chapter.2}}
\newlabel{fundamentacaoTeorica}{{2}{19}{Fundamentação Teórica}{chapter.2}{}}
\acro@used@twice{UML}{19}{19}{21}
\@@wrindexm@m{monografia}{UML@{UML}|hyperpage}{19}
\@writefile{toc}{\contentsline {section}{\numberline {2.1}Linguagem Unificada de Modelagem}{19}{section.2.1}}
\newlabel{uml}{{2.1}{19}{Linguagem Unificada de Modelagem}{section.2.1}{}}
\acro@used@twice{UML}{19}{19}{21}
\@@wrindexm@m{monografia}{UML@{UML}|hyperpage}{19}
\acro@used@twice{UML}{19}{19}{21}
\@@wrindexm@m{monografia}{UML@{UML}|hyperpage}{19}
\@writefile{brf}{\backcite{booch2000uml}{{19}{2.1}{section.2.1}}}
\acro@used@twice{UML}{19}{19}{21}
\@@wrindexm@m{monografia}{UML@{UML}|hyperpage}{19}
\@writefile{brf}{\backcite{booch2000uml}{{19}{2.1}{section.2.1}}}
\acro@used@once{oose}{19}{19}{21}
\@@wrindexm@m{monografia}{oose@{OOSE}|hyperpage}{19}
\acro@used@once{omt}{19}{19}{21}
\@@wrindexm@m{monografia}{omt@{OMT}|hyperpage}{19}
\acro@used@twice{UML}{19}{19}{21}
\@@wrindexm@m{monografia}{UML@{UML}|hyperpage}{19}
\acro@used@twice{UML}{19}{19}{21}
\@@wrindexm@m{monografia}{UML@{UML}|hyperpage}{19}
\acro@used@twice{oose}{19}{19}{21}
\@@wrindexm@m{monografia}{oose@{OOSE}|hyperpage}{19}
\acro@used@twice{UML}{19}{19}{21}
\@@wrindexm@m{monografia}{UML@{UML}|hyperpage}{19}
\acro@used@once{omg}{19}{19}{21}
\@@wrindexm@m{monografia}{omg@{OMG}|hyperpage}{19}
\acro@used@twice{UML}{19}{19}{21}
\@@wrindexm@m{monografia}{UML@{UML}|hyperpage}{19}
\acro@used@twice{UML}{19}{19}{21}
\@@wrindexm@m{monografia}{UML@{UML}|hyperpage}{19}
\citation{uml25}
\citation{uml25}
\BKM@entry{id=15,dest={73756273756273656374696F6E2E322E312E302E31},srcline={25}}{4469616772616D6173204573747275747572616973}
\citation{booch2000uml}
\acro@used@twice{UML}{20}{20}{22}
\@@wrindexm@m{monografia}{UML@{UML}|hyperpage}{20}
\@writefile{lof}{\contentsline {figure}{\numberline {1}{\ignorespaces Diagramas da \ac {UML} 2.5 \cite  {uml25}.}}{20}{figure.2.1}}
\acro@used@twice{UML}{20}{20}{22}
\@@wrindexm@m{monografia}{UML@{UML}|hyperpage}{20}
\@writefile{brf}{\backcite{uml25}{{20}{1}{figure.2.1}}}
\newlabel{fig:estruturaDiagramasUML}{{1}{20}{Diagramas da \ac {UML} 2.5 \cite {uml25}}{figure.2.1}{}}
\@writefile{toc}{\contentsline {subsubsection}{\numberline {2.1.0.1}Diagramas Estruturais}{20}{subsubsection.2.1.0.1}}
\newlabel{diagramasestruturais}{{2.1.0.1}{20}{Diagramas Estruturais}{subsubsection.2.1.0.1}{}}
\citation{uml25}
\citation{uml25}
\citation{booch2000uml}
\citation{booch2000uml}
\citation{booch2000uml}
\citation{uml25}
\citation{uml25}
\BKM@entry{id=16,dest={73756273756273656374696F6E2E322E312E302E32},srcline={37}}{4469616772616D617320436F6D706F7274616D656E74616973}
\citation{uml25}
\citation{booch2000uml}
\citation{booch2000uml}
\@writefile{brf}{\backcite{booch2000uml}{{21}{2.1.0.1}{subsubsection.2.1.0.1}}}
\@writefile{brf}{\backcite{uml25}{{21}{2.1.0.1}{subsubsection.2.1.0.1}}}
\@writefile{brf}{\backcite{uml25}{{21}{2.1.0.1}{subsubsection.2.1.0.1}}}
\@writefile{brf}{\backcite{booch2000uml}{{21}{2.1.0.1}{subsubsection.2.1.0.1}}}
\@writefile{brf}{\backcite{booch2000uml}{{21}{2.1.0.1}{subsubsection.2.1.0.1}}}
\@writefile{brf}{\backcite{booch2000uml}{{21}{2.1.0.1}{subsubsection.2.1.0.1}}}
\@writefile{brf}{\backcite{uml25}{{21}{2.1.0.1}{subsubsection.2.1.0.1}}}
\@writefile{brf}{\backcite{uml25}{{21}{2.1.0.1}{subsubsection.2.1.0.1}}}
\@writefile{toc}{\contentsline {subsubsection}{\numberline {2.1.0.2}Diagramas Comportamentais}{21}{subsubsection.2.1.0.2}}
\newlabel{diagramascomportamentais}{{2.1.0.2}{21}{Diagramas Comportamentais}{subsubsection.2.1.0.2}{}}
\@writefile{brf}{\backcite{uml25}{{21}{2.1.0.2}{subsubsection.2.1.0.2}}}
\@writefile{brf}{\backcite{booch2000uml}{{21}{2.1.0.2}{subsubsection.2.1.0.2}}}
\citation{booch2000uml}
\citation{booch2000uml}
\citation{uml25}
\citation{uml25}
\BKM@entry{id=17,dest={73656374696F6E2E322E32},srcline={49}}{46657272616D656E7461732043415345}
\citation{sommerville2003engenharia}
\citation{sommerville2003engenharia}
\citation{sommerville2003engenharia}
\citation{sommerville2003engenharia}
\citation{fuggetta1993classification}
\citation{fuggetta1993classification}
\citation{sommerville2003engenharia}
\citation{sommerville2003engenharia}
\citation{fuggetta1993classification}
\citation{fuggetta1993classification}
\citation{sommerville2003engenharia}
\citation{sommerville2003engenharia}
\citation{fuggetta1993classification}
\citation{fuggetta1993classification}
\BKM@entry{id=18,dest={73656374696F6E2E322E33},srcline={61}}{50726F63657373616D656E746F20646520496D6167656E73204469676974616973}
\citation{pedrini2008analise}
\citation{gonzalez2010processamento}
\@writefile{brf}{\backcite{booch2000uml}{{22}{2.1.0.2}{subsubsection.2.1.0.2}}}
\@writefile{brf}{\backcite{booch2000uml}{{22}{2.1.0.2}{subsubsection.2.1.0.2}}}
\@writefile{brf}{\backcite{booch2000uml}{{22}{2.1.0.2}{subsubsection.2.1.0.2}}}
\@writefile{brf}{\backcite{uml25}{{22}{2.1.0.2}{subsubsection.2.1.0.2}}}
\@writefile{brf}{\backcite{uml25}{{22}{2.1.0.2}{subsubsection.2.1.0.2}}}
\acro@used@twice{case}{22}{22}{24}
\@@wrindexm@m{monografia}{case@{CASE}|hyperpage}{22}
\@writefile{toc}{\contentsline {section}{\numberline {2.2}Ferramentas \ac {case}}{22}{section.2.2}}
\newlabel{ferramentasCase}{{2.2}{22}{Ferramentas \ac {case}}{section.2.2}{}}
\acro@used@twice{case}{22}{22}{24}
\@@wrindexm@m{monografia}{case@{CASE}|hyperpage}{22}
\@writefile{brf}{\backcite{sommerville2003engenharia}{{22}{2.2}{section.2.2}}}
\acro@used@twice{case}{22}{22}{24}
\@@wrindexm@m{monografia}{case@{CASE}|hyperpage}{22}
\@writefile{brf}{\backcite{sommerville2003engenharia}{{22}{2.2}{section.2.2}}}
\acro@used@twice{case}{22}{22}{24}
\@@wrindexm@m{monografia}{case@{CASE}|hyperpage}{22}
\acro@used@twice{case}{22}{22}{24}
\@@wrindexm@m{monografia}{case@{CASE}|hyperpage}{22}
\@writefile{brf}{\backcite{sommerville2003engenharia}{{22}{2.2}{section.2.2}}}
\@writefile{brf}{\backcite{sommerville2003engenharia}{{22}{2.2}{section.2.2}}}
\@writefile{brf}{\backcite{fuggetta1993classification}{{22}{2.2}{section.2.2}}}
\@writefile{brf}{\backcite{fuggetta1993classification}{{22}{2.2}{section.2.2}}}
\acro@used@twice{case}{22}{22}{24}
\@@wrindexm@m{monografia}{case@{CASE}|hyperpage}{22}
\@writefile{toc}{\contentsline {section}{\numberline {2.3}Processamento de Imagens Digitais}{22}{section.2.3}}
\newlabel{processamentoImagens}{{2.3}{22}{Processamento de Imagens Digitais}{section.2.3}{}}
\citation{gonzalez2010processamento}
\citation{gonzalez2010processamento}
\citation{gonzalez2010processamento}
\citation{gonzalez2010processamento}
\@writefile{lof}{\contentsline {figure}{\numberline {2}{\ignorespaces Classifica\IeC {\c c}\IeC {\~a}o ferramentas \ac {case} por abrang\IeC {\^e}ncia \apud {sommerville2003engenharia}{fuggetta1993classification}}}{23}{figure.2.2}}
\acro@used@twice{case}{23}{23}{25}
\@@wrindexm@m{monografia}{case@{CASE}|hyperpage}{23}
\@writefile{brf}{\backcite{sommerville2003engenharia}{{23}{2}{figure.2.2}}}
\@writefile{brf}{\backcite{sommerville2003engenharia}{{23}{2}{figure.2.2}}}
\@writefile{brf}{\backcite{fuggetta1993classification}{{23}{2}{figure.2.2}}}
\@writefile{brf}{\backcite{fuggetta1993classification}{{23}{2}{figure.2.2}}}
\newlabel{fig:categoriaCase}{{2}{23}{Classificação ferramentas \ac {case} por abrangência \apud {sommerville2003engenharia}{fuggetta1993classification}}{figure.2.2}{}}
\@writefile{brf}{\backcite{pedrini2008analise}{{23}{2.3}{section.2.3}}}
\@writefile{brf}{\backcite{gonzalez2010processamento}{{23}{2.3}{section.2.3}}}
\acro@used@once{em}{23}{23}{25}
\@@wrindexm@m{monografia}{em@{EM}|hyperpage}{23}
\acro@used@twice{em}{23}{23}{25}
\@@wrindexm@m{monografia}{em@{EM}|hyperpage}{23}
\@writefile{brf}{\backcite{gonzalez2010processamento}{{23}{2.3}{section.2.3}}}
\citation{gonzalez2010processamento}
\citation{gonzalez2010processamento}
\citation{gonzalez2010processamento}
\citation{gonzalez2010processamento}
\BKM@entry{id=19,dest={73756273656374696F6E2E322E332E31},srcline={97}}{4171756973695C3334375C3334336F20646520696D6167656E73}
\citation{gonzalez2010processamento}
\citation{gonzalez2010processamento}
\citation{gonzalez2010processamento}
\@writefile{lof}{\contentsline {figure}{\numberline {3}{\ignorespaces Espectro eletromagn\IeC {\'e}tico \cite  {gonzalez2010processamento}.}}{24}{figure.2.3}}
\@writefile{brf}{\backcite{gonzalez2010processamento}{{24}{3}{figure.2.3}}}
\newlabel{fig:espectro_eletromagnetico}{{3}{24}{Espectro eletromagnético \cite {gonzalez2010processamento}}{figure.2.3}{}}
\@writefile{brf}{\backcite{gonzalez2010processamento}{{24}{2.3}{figure.2.3}}}
\@writefile{brf}{\backcite{gonzalez2010processamento}{{24}{2.3}{figure.2.3}}}
\@writefile{brf}{\backcite{gonzalez2010processamento}{{24}{2.3}{figure.2.4}}}
\BKM@entry{id=20,dest={73756273656374696F6E2E322E332E32},srcline={106}}{46696C74726167656D2C207265616C636520652072657374617572615C3334375C3334336F20646520696D6167656E73}
\citation{gonzalez2010processamento}
\citation{pedrini2008analise}
\citation{gonzalez2010processamento}
\@writefile{lof}{\contentsline {figure}{\numberline {4}{\ignorespaces Componentes de um software de processamento de imagens de uso geral \cite  {gonzalez2010processamento}.}}{25}{figure.2.4}}
\@writefile{brf}{\backcite{gonzalez2010processamento}{{25}{4}{figure.2.4}}}
\newlabel{fig:componentes_sistema}{{4}{25}{Componentes de um software de processamento de imagens de uso geral \cite {gonzalez2010processamento}}{figure.2.4}{}}
\@writefile{toc}{\contentsline {subsection}{\numberline {2.3.1}Aquisi\IeC {\c c}\IeC {\~a}o de imagens}{25}{subsection.2.3.1}}
\@writefile{brf}{\backcite{gonzalez2010processamento}{{25}{2.3.1}{subsection.2.3.1}}}
\@writefile{toc}{\contentsline {subsection}{\numberline {2.3.2}Filtragem, realce e restaura\IeC {\c c}\IeC {\~a}o de imagens}{25}{subsection.2.3.2}}
\@writefile{brf}{\backcite{gonzalez2010processamento}{{25}{2.3.2}{subsection.2.3.2}}}
\@writefile{brf}{\backcite{pedrini2008analise}{{25}{2.3.2}{subsection.2.3.2}}}
\BKM@entry{id=21,dest={73756273656374696F6E2E322E332E33},srcline={111}}{50726F63657373616D656E746F20646520696D6167656E7320636F6C6F7269646173}
\citation{gonzalez2010processamento}
\citation{gonzalez2010processamento}
\citation{pedrini2008analise}
\citation{gonzalez2010processamento}
\@writefile{lof}{\contentsline {figure}{\numberline {5}{\ignorespaces Passos fundamentais para o processamento de imagens}}{26}{figure.2.5}}
\newlabel{fig:passos_fundamentais}{{5}{26}{Passos fundamentais para o processamento de imagens}{figure.2.5}{}}
\@writefile{brf}{\backcite{gonzalez2010processamento}{{26}{2.3.2}{subsection.2.3.2}}}
\@writefile{toc}{\contentsline {subsection}{\numberline {2.3.3}Processamento de imagens coloridas}{26}{subsection.2.3.3}}
\@writefile{brf}{\backcite{gonzalez2010processamento}{{26}{2.3.3}{subsection.2.3.3}}}
\@writefile{brf}{\backcite{gonzalez2010processamento}{{26}{2.3.3}{subsection.2.3.3}}}
\@writefile{brf}{\backcite{pedrini2008analise}{{26}{2.3.3}{subsection.2.3.3}}}
\BKM@entry{id=22,dest={73756273656374696F6E2E322E332E34},srcline={118}}{436F6D70726573735C3334336F20646520696D6167656E73}
\citation{gonzalez2010processamento}
\citation{pedrini2008analise}
\citation{gonzalez2010processamento}
\citation{pedrini2008analise}
\@writefile{lof}{\contentsline {figure}{\numberline {6}{\ignorespaces Amostragem e quantiza\IeC {\c c}\IeC {\~a}o (adaptada de \citeonline  {gonzalez2010processamento}).}}{27}{figure.2.6}}
\@writefile{brf}{\backcite{gonzalez2010processamento}{{27}{6}{figure.2.6}}}
\newlabel{fig:amostragem_quantizacao}{{6}{27}{Amostragem e quantização (adaptada de \citeonline {gonzalez2010processamento})}{figure.2.6}{}}
\@writefile{brf}{\backcite{gonzalez2010processamento}{{27}{2.3.3}{subsection.2.3.3}}}
\@writefile{toc}{\contentsline {subsection}{\numberline {2.3.4}Compress\IeC {\~a}o de imagens}{27}{subsection.2.3.4}}
\@writefile{brf}{\backcite{gonzalez2010processamento}{{27}{2.3.4}{subsection.2.3.4}}}
\@writefile{brf}{\backcite{pedrini2008analise}{{27}{2.3.4}{subsection.2.3.4}}}
\@writefile{brf}{\backcite{gonzalez2010processamento, pedrini2008analise}{{27}{2.3.4}{subsection.2.3.4}}}
\@writefile{brf}{\backcite{gonzalez2010processamento, pedrini2008analise}{{27}{2.3.4}{subsection.2.3.4}}}
\BKM@entry{id=23,dest={73656374696F6E2E322E34},srcline={127}}{416E5C3334316C69736520646520496D6167656E73204469676974616973}
\citation{pedrini2008analise}
\BKM@entry{id=24,dest={73756273656374696F6E2E322E342E31},srcline={133}}{5365676D656E74615C3334375C3334336F20646520496D6167656E73}
\citation{gonzalez2010processamento}
\citation{pedrini2008analise}
\BKM@entry{id=25,dest={73756273656374696F6E2E322E342E32},srcline={137}}{526570726573656E74615C3334375C3334336F2065204465736372695C3334375C3334336F}
\@writefile{toc}{\contentsline {section}{\numberline {2.4}An\IeC {\'a}lise de Imagens Digitais}{28}{section.2.4}}
\newlabel{analiseImagens}{{2.4}{28}{Análise de Imagens Digitais}{section.2.4}{}}
\@writefile{brf}{\backcite{pedrini2008analise}{{28}{2.4}{section.2.4}}}
\@writefile{toc}{\contentsline {subsection}{\numberline {2.4.1}Segmenta\IeC {\c c}\IeC {\~a}o de Imagens}{28}{subsection.2.4.1}}
\newlabel{analiseSegmentacao}{{2.4.1}{28}{Segmentação de Imagens}{subsection.2.4.1}{}}
\@writefile{brf}{\backcite{gonzalez2010processamento}{{28}{2.4.1}{subsection.2.4.1}}}
\@writefile{brf}{\backcite{pedrini2008analise}{{28}{2.4.1}{subsection.2.4.1}}}
\@writefile{toc}{\contentsline {subsection}{\numberline {2.4.2}Representa\IeC {\c c}\IeC {\~a}o e Descri\IeC {\c c}\IeC {\~a}o}{28}{subsection.2.4.2}}
\newlabel{representacaodescricao}{{2.4.2}{28}{Representação e Descrição}{subsection.2.4.2}{}}
\BKM@entry{id=26,dest={73756273656374696F6E2E322E342E33},srcline={141}}{4D6F72666F6C6F676961204D6174656D5C33343174696361}
\citation{gonzalez2010processamento}
\citation{pedrini2008analise}
\BKM@entry{id=27,dest={73756273656374696F6E2E322E342E34},srcline={145}}{436C61737369666963615C3334375C3334336F20646520506164725C3336356573}
\citation{pedrini2008analise}
\BKM@entry{id=28,dest={73656374696F6E2E322E35},srcline={155}}{436F6E7369646572615C3334375C333635657320646F204361705C33353574756C6F}
\@writefile{toc}{\contentsline {subsection}{\numberline {2.4.3}Morfologia Matem\IeC {\'a}tica}{29}{subsection.2.4.3}}
\newlabel{morfologiamatematica}{{2.4.3}{29}{Morfologia Matemática}{subsection.2.4.3}{}}
\@writefile{brf}{\backcite{gonzalez2010processamento}{{29}{2.4.3}{subsection.2.4.3}}}
\@writefile{brf}{\backcite{pedrini2008analise}{{29}{2.4.3}{subsection.2.4.3}}}
\@writefile{toc}{\contentsline {subsection}{\numberline {2.4.4}Classifica\IeC {\c c}\IeC {\~a}o de Padr\IeC {\~o}es}{29}{subsection.2.4.4}}
\newlabel{classificacaopadroes}{{2.4.4}{29}{Classificação de Padrões}{subsection.2.4.4}{}}
\@writefile{brf}{\backcite{pedrini2008analise}{{29}{2.4.4}{subsection.2.4.4}}}
\@writefile{lof}{\contentsline {figure}{\numberline {7}{\ignorespaces Figuras geom\IeC {\'e}tricas que devem ser classificadas com rela\IeC {\c c}\IeC {\~a}o a sua forma.}}{29}{figure.2.7}}
\newlabel{fig:reconhecimento_padroes}{{7}{29}{Figuras geométricas que devem ser classificadas com relação a sua forma}{figure.2.7}{}}
\@writefile{toc}{\contentsline {section}{\numberline {2.5}Considera\IeC {\c c}\IeC {\~o}es do Cap\IeC {\'\i }tulo}{30}{section.2.5}}
\newlabel{conclusaoFundamentacaoTeorica}{{2.5}{30}{Considerações do Capítulo}{section.2.5}{}}
\acro@used@twice{case}{30}{30}{32}
\@@wrindexm@m{monografia}{case@{CASE}|hyperpage}{30}
\acro@used@twice{UML}{30}{30}{32}
\@@wrindexm@m{monografia}{UML@{UML}|hyperpage}{30}
\acro@used@twice{UML}{30}{30}{32}
\@@wrindexm@m{monografia}{UML@{UML}|hyperpage}{30}
\acro@used@twice{UML}{30}{30}{32}
\@@wrindexm@m{monografia}{UML@{UML}|hyperpage}{30}
\BKM@entry{id=29,dest={636861707465722E33},srcline={2}}{4D5C333531746F646F732065205265637572736F73}
\BKM@entry{id=30,dest={73656374696F6E2E332E31},srcline={6}}{50725C333431746963617320646520456E67656E686172696120646520536F667477617265}
\BKM@entry{id=31,dest={73756273656374696F6E2E332E312E31},srcline={9}}{50726F636573736F20556E6966696361646F205C2850555C29}
\citation{pressman2011engenharia}
\citation{larman2000utilizando}
\citation{larman2000utilizando}
\citation{larman2000utilizando}
\citation{larman2000utilizando}
\@writefile{toc}{\setlength  {\cftchapterindent }{0em} \setlength  {\cftchapternumwidth }{\cftlastnumwidth }}
\@writefile{toc}{\contentsline {chapter}{\chapternumberline {3}\MakeTextUppercase  {M\IeC {\'e}todos e Recursos}}{31}{chapter.3}}
\newlabel{metodosRecursos}{{3}{31}{Métodos e Recursos}{chapter.3}{}}
\acro@used@twice{opencv}{31}{31}{33}
\@@wrindexm@m{monografia}{opencv@{Open CV}|hyperpage}{31}
\@writefile{toc}{\contentsline {section}{\numberline {3.1}Pr\IeC {\'a}ticas de Engenharia de Software}{31}{section.3.1}}
\newlabel{praticases}{{3.1}{31}{Práticas de Engenharia de Software}{section.3.1}{}}
\acro@used@twice{pu}{31}{31}{33}
\@@wrindexm@m{monografia}{pu@{PU}|hyperpage}{31}
\@writefile{toc}{\contentsline {subsection}{\numberline {3.1.1}Processo Unificado (\ac {pu})}{31}{subsection.3.1.1}}
\newlabel{pu}{{3.1.1}{31}{Processo Unificado (\ac {pu})}{subsection.3.1.1}{}}
\acro@used@twice{pu}{31}{31}{33}
\@@wrindexm@m{monografia}{pu@{PU}|hyperpage}{31}
\@writefile{brf}{\backcite{pressman2011engenharia}{{31}{3.1.1}{subsection.3.1.1}}}
\acro@used@twice{pu}{31}{31}{33}
\@@wrindexm@m{monografia}{pu@{PU}|hyperpage}{31}
\@writefile{brf}{\backcite{larman2000utilizando}{{31}{3.1.1}{subsection.3.1.1}}}
\acro@used@twice{pu}{31}{31}{33}
\@@wrindexm@m{monografia}{pu@{PU}|hyperpage}{31}
\@writefile{brf}{\backcite{larman2000utilizando}{{31}{3.1.1}{subsection.3.1.1}}}
\@writefile{brf}{\backcite{larman2000utilizando}{{31}{3.1.1}{subsection.3.1.1}}}
\citation{larman2000utilizando}
\citation{larman2000utilizando}
\BKM@entry{id=32,dest={73756273656374696F6E2E332E312E32},srcline={29}}{53746F7279626F617264}
\citation{de2007ergonomia}
\citation{de2007ergonomia}
\@writefile{brf}{\backcite{larman2000utilizando}{{32}{3.1.1}{subsection.3.1.1}}}
\@writefile{brf}{\backcite{larman2000utilizando}{{32}{3.1.1}{subsection.3.1.1}}}
\acro@used@twice{pu}{32}{32}{34}
\@@wrindexm@m{monografia}{pu@{PU}|hyperpage}{32}
\@writefile{brf}{\backcite{larman2000utilizando}{{32}{3.1.1}{subsection.3.1.1}}}
\@writefile{lof}{\contentsline {figure}{\numberline {8}{\ignorespaces Disciplinas do \ac {pu}.}}{32}{figure.3.8}}
\acro@used@twice{pu}{32}{32}{34}
\@@wrindexm@m{monografia}{pu@{PU}|hyperpage}{32}
\newlabel{fig:up}{{8}{32}{Disciplinas do \ac {pu}}{figure.3.8}{}}
\@writefile{toc}{\contentsline {subsection}{\numberline {3.1.2}Storyboard}{32}{subsection.3.1.2}}
\newlabel{storyboard}{{3.1.2}{32}{Storyboard}{subsection.3.1.2}{}}
\@writefile{brf}{\backcite{de2007ergonomia}{{32}{3.1.2}{subsection.3.1.2}}}
\BKM@entry{id=33,dest={73756273656374696F6E2E332E312E33},srcline={36}}{486973745C33363372696173206465205573755C33343172696F}
\citation{bourque2014guide}
\citation{bourque2014guide}
\BKM@entry{id=34,dest={73656374696F6E2E332E32},srcline={41}}{506C617461666F726D6120416E64726F6964}
\citation{pereira2009android}
\citation{lecheta2013google}
\@writefile{brf}{\backcite{de2007ergonomia}{{33}{3.1.2}{subsection.3.1.2}}}
\@writefile{toc}{\contentsline {subsection}{\numberline {3.1.3}Hist\IeC {\'o}rias de Usu\IeC {\'a}rio}{33}{subsection.3.1.3}}
\newlabel{historiasusuario}{{3.1.3}{33}{Histórias de Usuário}{subsection.3.1.3}{}}
\@writefile{brf}{\backcite{bourque2014guide}{{33}{3.1.3}{subsection.3.1.3}}}
\@writefile{brf}{\backcite{bourque2014guide}{{33}{3.1.3}{subsection.3.1.3}}}
\@writefile{toc}{\contentsline {section}{\numberline {3.2}Plataforma Android}{33}{section.3.2}}
\newlabel{android}{{3.2}{33}{Plataforma Android}{section.3.2}{}}
\@writefile{brf}{\backcite{pereira2009android}{{33}{3.2}{section.3.2}}}
\acro@used@once{oha}{33}{33}{35}
\@@wrindexm@m{monografia}{oha@{OHA}|hyperpage}{33}
\@writefile{brf}{\backcite{lecheta2013google}{{33}{3.2}{section.3.2}}}
\acro@used@once{sdk}{33}{33}{35}
\@@wrindexm@m{monografia}{sdk@{SDK}|hyperpage}{33}
\acro@used@once{ndk}{33}{33}{35}
\@@wrindexm@m{monografia}{ndk@{NDK}|hyperpage}{33}
\acro@used@twice{ndk}{33}{33}{35}
\@@wrindexm@m{monografia}{ndk@{NDK}|hyperpage}{33}
\BKM@entry{id=35,dest={73756273656374696F6E2E332E322E31},srcline={50}}{416D6269656E746520646520446573656E766F6C76696D656E746F}
\citation{androidStudio}
\BKM@entry{id=36,dest={73756273656374696F6E2E332E322E32},srcline={53}}{566572735C3334336F20646F20416E64726F6964}
\citation{pereira2009android}
\BKM@entry{id=37,dest={73756273656374696F6E2E332E322E33},srcline={58}}{416C67756E73205265637572736F7320425C3334317369636F73}
\BKM@entry{id=38,dest={73756273756273656374696F6E2E332E322E332E31},srcline={61}}{4163746976697479}
\citation{pereira2009android}
\BKM@entry{id=39,dest={73756273756273656374696F6E2E332E322E332E32},srcline={64}}{56696577}
\citation{pereira2009android}
\citation{androidStudio}
\@writefile{toc}{\contentsline {subsection}{\numberline {3.2.1}Ambiente de Desenvolvimento}{34}{subsection.3.2.1}}
\newlabel{androidstudio}{{3.2.1}{34}{Ambiente de Desenvolvimento}{subsection.3.2.1}{}}
\@writefile{brf}{\backcite{androidStudio}{{34}{3.2.1}{subsection.3.2.1}}}
\@writefile{toc}{\contentsline {subsection}{\numberline {3.2.2}Vers\IeC {\~a}o do Android}{34}{subsection.3.2.2}}
\newlabel{versaoandroid}{{3.2.2}{34}{Versão do Android}{subsection.3.2.2}{}}
\@writefile{brf}{\backcite{pereira2009android}{{34}{3.2.2}{subsection.3.2.2}}}
\@writefile{toc}{\contentsline {subsection}{\numberline {3.2.3}Alguns Recursos B\IeC {\'a}sicos}{34}{subsection.3.2.3}}
\newlabel{conceitosbasicos}{{3.2.3}{34}{Alguns Recursos Básicos}{subsection.3.2.3}{}}
\@writefile{toc}{\contentsline {subsubsection}{\numberline {3.2.3.1}Activity}{34}{subsubsection.3.2.3.1}}
\newlabel{activity}{{3.2.3.1}{34}{Activity}{subsubsection.3.2.3.1}{}}
\acro@used@once{mvc}{34}{34}{36}
\@@wrindexm@m{monografia}{mvc@{MVC}|hyperpage}{34}
\@writefile{brf}{\backcite{pereira2009android}{{34}{3.2.3.1}{subsubsection.3.2.3.1}}}
\@writefile{toc}{\contentsline {subsubsection}{\numberline {3.2.3.2}View}{34}{subsubsection.3.2.3.2}}
\newlabel{view}{{3.2.3.2}{34}{View}{subsubsection.3.2.3.2}{}}
\@writefile{brf}{\backcite{pereira2009android}{{34}{3.2.3.2}{subsubsection.3.2.3.2}}}
\BKM@entry{id=40,dest={73756273756273656374696F6E2E332E322E332E33},srcline={76}}{436F6E73756D6F2064652053657276695C3334376F7320576562}
\BKM@entry{id=41,dest={73656374696F6E2E332E33},srcline={88}}{4F70656E204356}
\@writefile{brf}{\backcite{androidStudio}{{35}{3.2.3.2}{subsubsection.3.2.3.2}}}
\acro@used@twice{xml}{35}{35}{37}
\@@wrindexm@m{monografia}{xml@{XML}|hyperpage}{35}
\acro@used@twice{xml}{35}{35}{37}
\@@wrindexm@m{monografia}{xml@{XML}|hyperpage}{35}
\acro@used@twice{xml}{35}{35}{37}
\@@wrindexm@m{monografia}{xml@{XML}|hyperpage}{35}
\@writefile{lof}{\contentsline {figure}{\numberline {9}{\ignorespaces Exemplo da implementa\IeC {\c c}\IeC {\~a}o da interface gr\IeC {\'a}fica em \ac {xml}.}}{35}{figure.3.9}}
\acro@used@twice{xml}{35}{35}{37}
\@@wrindexm@m{monografia}{xml@{XML}|hyperpage}{35}
\newlabel{fig:exemplointerfacexml}{{9}{35}{Exemplo da implementação da interface gráfica em \ac {xml}}{figure.3.9}{}}
\@writefile{toc}{\contentsline {subsubsection}{\numberline {3.2.3.3}Consumo de Servi\IeC {\c c}os Web}{35}{subsubsection.3.2.3.3}}
\newlabel{web}{{3.2.3.3}{35}{Consumo de Serviços Web}{subsubsection.3.2.3.3}{}}
\acro@used@twice{sdk}{35}{35}{37}
\@@wrindexm@m{monografia}{sdk@{SDK}|hyperpage}{35}
\acro@used@once{api}{35}{35}{37}
\@@wrindexm@m{monografia}{api@{API}|hyperpage}{35}
\citation{opencv}
\citation{opencv}
\@writefile{lof}{\contentsline {figure}{\numberline {10}{\ignorespaces M\IeC {\'e}todo para consumir um servi\IeC {\c c}o web.}}{36}{figure.3.10}}
\newlabel{fig:consumowebservice}{{10}{36}{Método para consumir um serviço web}{figure.3.10}{}}
\acro@used@twice{opencv}{36}{36}{38}
\@@wrindexm@m{monografia}{opencv@{Open CV}|hyperpage}{36}
\@writefile{toc}{\contentsline {section}{\numberline {3.3}\ac {opencv}}{36}{section.3.3}}
\newlabel{opencv}{{3.3}{36}{\ac {opencv}}{section.3.3}{}}
\acro@used@twice{opencv}{36}{36}{38}
\@@wrindexm@m{monografia}{opencv@{Open CV}|hyperpage}{36}
\acro@used@twice{opencv}{36}{36}{38}
\@@wrindexm@m{monografia}{opencv@{Open CV}|hyperpage}{36}
\acro@used@twice{opencv}{36}{36}{38}
\@@wrindexm@m{monografia}{opencv@{Open CV}|hyperpage}{36}
\acro@used@twice{api}{36}{36}{38}
\@@wrindexm@m{monografia}{api@{API}|hyperpage}{36}
\acro@used@twice{opencv}{36}{36}{38}
\@@wrindexm@m{monografia}{opencv@{Open CV}|hyperpage}{36}
\@writefile{brf}{\backcite{opencv}{{36}{3.3}{section.3.3}}}
\citation{opencv}
\citation{opencv}
\citation{opencv}
\citation{opencv}
\citation{opencv}
\citation{opencv}
\BKM@entry{id=42,dest={73656374696F6E2E332E34},srcline={105}}{436F6E7369646572615C3334375C333635657320646F204361705C33353574756C6F}
\@writefile{brf}{\backcite{opencv}{{37}{3.3}{section.3.3}}}
\@writefile{brf}{\backcite{opencv}{{37}{3.3}{section.3.3}}}
\@writefile{brf}{\backcite{opencv}{{37}{3.3}{section.3.3}}}
\@writefile{brf}{\backcite{opencv}{{37}{3.3}{section.3.3}}}
\@writefile{brf}{\backcite{opencv}{{37}{3.3}{section.3.3}}}
\@writefile{brf}{\backcite{opencv}{{37}{3.3}{section.3.3}}}
\acro@used@once{gpu}{37}{37}{39}
\@@wrindexm@m{monografia}{gpu@{GPU}|hyperpage}{37}
\@writefile{brf}{\backcite{opencv}{{37}{3.3}{section.3.3}}}
\@writefile{toc}{\contentsline {section}{\numberline {3.4}Considera\IeC {\c c}\IeC {\~o}es do Cap\IeC {\'\i }tulo}{37}{section.3.4}}
\newlabel{consideracoesmetodosrecursos}{{3.4}{37}{Considerações do Capítulo}{section.3.4}{}}
\acro@used@twice{pu}{37}{37}{39}
\@@wrindexm@m{monografia}{pu@{PU}|hyperpage}{37}
\acro@used@twice{pu}{37}{37}{39}
\@@wrindexm@m{monografia}{pu@{PU}|hyperpage}{37}
\acro@used@twice{opencv}{37}{37}{39}
\@@wrindexm@m{monografia}{opencv@{Open CV}|hyperpage}{37}
\acro@used@twice{opencv}{37}{37}{39}
\@@wrindexm@m{monografia}{opencv@{Open CV}|hyperpage}{37}
\BKM@entry{id=43,dest={636861707465722E34},srcline={2}}{54726162616C686F732052656C6163696F6E61646F73}
\citation{petersen2008systematic}
\BKM@entry{id=44,dest={73656374696F6E2E342E31},srcline={6}}{4D65746F646F6C6F676961}
\@writefile{toc}{\setlength  {\cftchapterindent }{0em} \setlength  {\cftchapternumwidth }{\cftlastnumwidth }}
\@writefile{toc}{\contentsline {chapter}{\chapternumberline {4}\MakeTextUppercase  {Trabalhos Relacionados}}{39}{chapter.4}}
\newlabel{trabalhosRelacionados}{{4}{39}{Trabalhos Relacionados}{chapter.4}{}}
\@writefile{brf}{\backcite{petersen2008systematic}{{39}{4}{chapter.4}}}
\@writefile{toc}{\contentsline {section}{\numberline {4.1}Metodologia}{39}{section.4.1}}
\newlabel{metodologia}{{4.1}{39}{Metodologia}{section.4.1}{}}
\acro@used@twice{UML}{39}{39}{41}
\@@wrindexm@m{monografia}{UML@{UML}|hyperpage}{39}
\acro@used@twice{UML}{39}{39}{41}
\@@wrindexm@m{monografia}{UML@{UML}|hyperpage}{39}
\acro@used@twice{UML}{39}{39}{41}
\@@wrindexm@m{monografia}{UML@{UML}|hyperpage}{39}
\BKM@entry{id=45,dest={73656374696F6E2E342E32},srcline={33}}{526573756C7461646F73}
\citation{karasneh2013extracting}
\citation{liao2012sketch}
\citation{mascardi2014holonic}
\citation{vashisht2012sketch}
\citation{sun2012query}
\citation{ghorbel2014imisketch}
\citation{eicholtz2014intermodal}
\citation{costagliola2014local}
\citation{wuest2013flexisketch}
\citation{bartelt2013collaborative}
\citation{awal2011first}
\citation{buchmann2012towards}
\citation{blagojevic2011using}
\citation{maggiori2014towards}
\citation{forbus2011cogsketch}
\citation{buchanan2014cstutor}
\citation{fu2011engineering}
\citation{jiang2011understanding}
\gdef \LT@i {\LT@entry 
    {1}{240.42203pt}\LT@entry 
    {1}{97.75826pt}\LT@entry 
    {1}{114.83008pt}}
\acro@used@twice{UML}{40}{40}{42}
\@@wrindexm@m{monografia}{UML@{UML}|hyperpage}{40}
\@writefile{toc}{\contentsline {section}{\numberline {4.2}Resultados}{40}{section.4.2}}
\newlabel{resultados}{{4.2}{40}{Resultados}{section.4.2}{}}
\acro@used@twice{UML}{40}{40}{42}
\@@wrindexm@m{monografia}{UML@{UML}|hyperpage}{40}
\acro@used@twice{UML}{40}{40}{42}
\@@wrindexm@m{monografia}{UML@{UML}|hyperpage}{40}
\acro@used@twice{UML}{40}{40}{42}
\@@wrindexm@m{monografia}{UML@{UML}|hyperpage}{40}
\@writefile{brf}{\backcite{karasneh2013extracting}{{40}{1}{table.4.1}}}
\@writefile{brf}{\backcite{liao2012sketch}{{40}{1}{table.4.1}}}
\@writefile{brf}{\backcite{mascardi2014holonic}{{40}{1}{table.4.1}}}
\@writefile{brf}{\backcite{vashisht2012sketch}{{40}{1}{table.4.1}}}
\@writefile{brf}{\backcite{sun2012query}{{40}{1}{table.4.1}}}
\@writefile{brf}{\backcite{ghorbel2014imisketch}{{40}{1}{table.4.1}}}
\@writefile{brf}{\backcite{eicholtz2014intermodal}{{40}{1}{table.4.1}}}
\@writefile{brf}{\backcite{costagliola2014local}{{40}{1}{table.4.1}}}
\acro@used@twice{UML}{40}{40}{42}
\@@wrindexm@m{monografia}{UML@{UML}|hyperpage}{40}
\@writefile{brf}{\backcite{wuest2013flexisketch}{{40}{1}{table.4.1}}}
\acro@used@twice{UML}{40}{40}{42}
\@@wrindexm@m{monografia}{UML@{UML}|hyperpage}{40}
\@writefile{brf}{\backcite{bartelt2013collaborative}{{40}{1}{table.4.1}}}
\@writefile{brf}{\backcite{awal2011first}{{40}{1}{table.4.1}}}
\acro@used@twice{UML}{40}{40}{42}
\@@wrindexm@m{monografia}{UML@{UML}|hyperpage}{40}
\@writefile{brf}{\backcite{buchmann2012towards}{{40}{1}{table.4.1}}}
\@writefile{brf}{\backcite{blagojevic2011using}{{40}{1}{table.4.1}}}
\BKM@entry{id=46,dest={73756273656374696F6E2E342E322E31},srcline={83}}{517561697320745C333531636E69636173206465206171756973695C3334375C3334336F20646520696D6167656D20666F72616D207574696C697A61646173}
\citation{karasneh2013extracting}
\citation{maggiori2014towards}
\citation{ghorbel2014imisketch}
\citation{eicholtz2014intermodal}
\citation{vashisht2012sketch}
\citation{awal2011first}
\citation{wuest2013flexisketch}
\@writefile{brf}{\backcite{maggiori2014towards}{{41}{1}{table.4.1}}}
\@writefile{brf}{\backcite{forbus2011cogsketch}{{41}{1}{table.4.1}}}
\@writefile{brf}{\backcite{buchanan2014cstutor}{{41}{1}{table.4.1}}}
\acro@used@twice{UML}{41}{41}{43}
\@@wrindexm@m{monografia}{UML@{UML}|hyperpage}{41}
\@writefile{brf}{\backcite{fu2011engineering}{{41}{1}{table.4.1}}}
\@writefile{brf}{\backcite{jiang2011understanding}{{41}{1}{table.4.1}}}
\@writefile{lot}{\contentsline {table}{\numberline {1}{Artigos selecionados}}{41}{table.4.1}}
\newlabel{tab:tabelaArtigos}{{1}{41}{Artigos selecionados}{table.4.1}{}}
\@writefile{toc}{\contentsline {subsection}{\numberline {4.2.1}Quais t\IeC {\'e}cnicas de aquisi\IeC {\c c}\IeC {\~a}o de imagem foram utilizadas}{41}{subsection.4.2.1}}
\newlabel{aquisicao}{{4.2.1}{41}{Quais técnicas de aquisição de imagem foram utilizadas}{subsection.4.2.1}{}}
\@writefile{brf}{\backcite{karasneh2013extracting}{{41}{4.2.1}{subsection.4.2.1}}}
\@writefile{brf}{\backcite{maggiori2014towards}{{41}{4.2.1}{subsection.4.2.1}}}
\@writefile{brf}{\backcite{ghorbel2014imisketch}{{41}{4.2.1}{subsection.4.2.1}}}
\@writefile{brf}{\backcite{eicholtz2014intermodal}{{41}{4.2.1}{subsection.4.2.1}}}
\@writefile{brf}{\backcite{vashisht2012sketch}{{41}{4.2.1}{subsection.4.2.1}}}
\@writefile{brf}{\backcite{awal2011first}{{41}{4.2.1}{subsection.4.2.1}}}
\citation{buchmann2012towards}
\citation{buchmann2012towards}
\BKM@entry{id=47,dest={73756273656374696F6E2E342E322E32},srcline={94}}{51756169732066696C74726F7320666F72616D207574696C697A61646F73}
\citation{sun2012query}
\BKM@entry{id=48,dest={73756273656374696F6E2E342E322E33},srcline={99}}{517561697320745C333531636E69636173206465207365676D656E74615C3334375C3334336F20646520696D6167656D20666F72616D207574696C697A61646173}
\citation{mascardi2014holonic}
\citation{awal2011first}
\citation{maggiori2014towards}
\citation{blagojevic2011using}
\@writefile{brf}{\backcite{wuest2013flexisketch}{{42}{4.2.1}{subsection.4.2.1}}}
\acro@used@twice{UML}{42}{42}{44}
\@@wrindexm@m{monografia}{UML@{UML}|hyperpage}{42}
\@writefile{brf}{\backcite{buchmann2012towards}{{42}{4.2.1}{subsection.4.2.1}}}
\@writefile{brf}{\backcite{buchmann2012towards}{{42}{4.2.1}{subsection.4.2.1}}}
\acro@used@twice{UML}{42}{42}{44}
\@@wrindexm@m{monografia}{UML@{UML}|hyperpage}{42}
\@writefile{toc}{\contentsline {subsection}{\numberline {4.2.2}Quais filtros foram utilizados}{42}{subsection.4.2.2}}
\newlabel{filtragem}{{4.2.2}{42}{Quais filtros foram utilizados}{subsection.4.2.2}{}}
\@writefile{brf}{\backcite{sun2012query}{{42}{4.2.2}{subsection.4.2.2}}}
\@writefile{toc}{\contentsline {subsection}{\numberline {4.2.3}Quais t\IeC {\'e}cnicas de segmenta\IeC {\c c}\IeC {\~a}o de imagem foram utilizadas}{42}{subsection.4.2.3}}
\newlabel{segmentacao}{{4.2.3}{42}{Quais técnicas de segmentação de imagem foram utilizadas}{subsection.4.2.3}{}}
\@writefile{brf}{\backcite{mascardi2014holonic}{{42}{4.2.3}{subsection.4.2.3}}}
\@writefile{brf}{\backcite{awal2011first}{{42}{4.2.3}{subsection.4.2.3}}}
\@writefile{brf}{\backcite{maggiori2014towards}{{42}{4.2.3}{subsection.4.2.3}}}
\@writefile{brf}{\backcite{blagojevic2011using}{{42}{4.2.3}{subsection.4.2.3}}}
\citation{jiang2011understanding}
\BKM@entry{id=49,dest={73756273656374696F6E2E342E322E34},srcline={110}}{517561697320745C333531636E69636173206465207265636F6E686563696D656E746F20646520706164725C333635657320666F72616D207574696C697A61646173}
\citation{liao2012sketch}
\citation{vashisht2012sketch}
\citation{sun2012query}
\citation{forbus2011cogsketch}
\citation{costagliola2014local}
\citation{maggiori2014towards}
\@writefile{brf}{\backcite{jiang2011understanding}{{43}{4.2.3}{subsection.4.2.3}}}
\newlabel{reconhecimento}{{4.2.4}{43}{Quais técnicas de reconhecimento de padrões foram utilizadas}{subsection.4.2.4}{}}
\@writefile{toc}{\contentsline {subsection}{\numberline {4.2.4}Quais t\IeC {\'e}cnicas de reconhecimento de padr\IeC {\~o}es foram utilizadas}{43}{subsection.4.2.4}}
\newlabel{reconhecimento}{{4.2.4}{43}{Quais técnicas de reconhecimento de padrões foram utilizadas}{subsection.4.2.4}{}}
\@writefile{brf}{\backcite{liao2012sketch}{{43}{4.2.4}{subsection.4.2.4}}}
\@writefile{brf}{\backcite{vashisht2012sketch}{{43}{4.2.4}{subsection.4.2.4}}}
\@writefile{brf}{\backcite{sun2012query}{{43}{4.2.4}{subsection.4.2.4}}}
\@writefile{brf}{\backcite{forbus2011cogsketch}{{43}{4.2.4}{subsection.4.2.4}}}
\@writefile{brf}{\backcite{costagliola2014local}{{43}{4.2.4}{subsection.4.2.4}}}
\citation{karasneh2013extracting}
\citation{wuest2013flexisketch}
\citation{bartelt2013collaborative}
\citation{buchmann2012towards}
\citation{fu2011engineering}
\citation{ghorbel2014imisketch}
\citation{eicholtz2014intermodal}
\@writefile{brf}{\backcite{maggiori2014towards}{{44}{4.2.4}{subsection.4.2.4}}}
\@writefile{brf}{\backcite{karasneh2013extracting}{{44}{4.2.4}{subsection.4.2.4}}}
\acro@used@twice{UML}{44}{44}{46}
\@@wrindexm@m{monografia}{UML@{UML}|hyperpage}{44}
\@writefile{brf}{\backcite{wuest2013flexisketch}{{44}{4.2.4}{subsection.4.2.4}}}
\@writefile{brf}{\backcite{bartelt2013collaborative}{{44}{4.2.4}{subsection.4.2.4}}}
\acro@used@twice{UML}{44}{44}{46}
\@@wrindexm@m{monografia}{UML@{UML}|hyperpage}{44}
\@writefile{brf}{\backcite{buchmann2012towards}{{44}{4.2.4}{subsection.4.2.4}}}
\@writefile{brf}{\backcite{fu2011engineering}{{44}{4.2.4}{subsection.4.2.4}}}
\@writefile{brf}{\backcite{ghorbel2014imisketch}{{44}{4.2.4}{subsection.4.2.4}}}
\@writefile{brf}{\backcite{eicholtz2014intermodal}{{44}{4.2.4}{subsection.4.2.4}}}
\citation{awal2011first}
\BKM@entry{id=50,dest={73656374696F6E2E342E33},srcline={143}}{436F6E7369646572615C3334375C333635657320646F204361705C33353574756C6F}
\@writefile{brf}{\backcite{awal2011first}{{45}{4.2.4}{subsection.4.2.4}}}
\@writefile{toc}{\contentsline {section}{\numberline {4.3}Considera\IeC {\c c}\IeC {\~o}es do Cap\IeC {\'\i }tulo}{45}{section.4.3}}
\newlabel{conclusaotrabalhosrelacionados}{{4.3}{45}{Considerações do Capítulo}{section.4.3}{}}
\BKM@entry{id=51,dest={636861707465722E35},srcline={2}}{446573656E766F6C76696D656E746F205072656C696D696E6172}
\BKM@entry{id=52,dest={73656374696F6E2E352E31},srcline={6}}{4661736520646520436F6E6365705C3334375C3334336F}
\BKM@entry{id=53,dest={73756273656374696F6E2E352E312E31},srcline={9}}{5669735C3334336F20676572616C20646F2070726F626C656D61}
\citation{hammond2006tahuti}
\citation{wuest2013flexisketch}
\citation{costagliola2014local}
\BKM@entry{id=54,dest={73756273656374696F6E2E352E312E32},srcline={43}}{5669735C3334336F20646120536F6C755C3334375C3334336F}
\@writefile{toc}{\setlength  {\cftchapterindent }{0em} \setlength  {\cftchapternumwidth }{\cftlastnumwidth }}
\@writefile{toc}{\contentsline {chapter}{\chapternumberline {5}\MakeTextUppercase  {Desenvolvimento Preliminar}}{47}{chapter.5}}
\newlabel{resultados}{{5}{47}{Desenvolvimento Preliminar}{chapter.5}{}}
\acro@used@twice{pu}{47}{47}{49}
\@@wrindexm@m{monografia}{pu@{PU}|hyperpage}{47}
\@writefile{toc}{\contentsline {section}{\numberline {5.1}Fase de Concep\IeC {\c c}\IeC {\~a}o}{47}{section.5.1}}
\newlabel{concepcao}{{5.1}{47}{Fase de Concepção}{section.5.1}{}}
\@writefile{toc}{\contentsline {subsection}{\numberline {5.1.1}Vis\IeC {\~a}o geral do problema}{47}{subsection.5.1.1}}
\newlabel{visaoProblema}{{5.1.1}{47}{Visão geral do problema}{subsection.5.1.1}{}}
\@writefile{brf}{\backcite{hammond2006tahuti}{{47}{5.1.1}{subsection.5.1.1}}}
\acro@used@twice{UML}{47}{47}{49}
\@@wrindexm@m{monografia}{UML@{UML}|hyperpage}{47}
\acro@used@twice{UML}{47}{47}{49}
\@@wrindexm@m{monografia}{UML@{UML}|hyperpage}{47}
\@writefile{brf}{\backcite{wuest2013flexisketch}{{47}{5.1.1}{subsection.5.1.1}}}
\@writefile{brf}{\backcite{costagliola2014local}{{47}{5.1.1}{subsection.5.1.1}}}
\acro@used@twice{case}{47}{47}{49}
\@@wrindexm@m{monografia}{case@{CASE}|hyperpage}{47}
\acro@used@twice{case}{47}{47}{49}
\@@wrindexm@m{monografia}{case@{CASE}|hyperpage}{47}
\acro@used@twice{case}{47}{47}{49}
\@@wrindexm@m{monografia}{case@{CASE}|hyperpage}{47}
\@writefile{toc}{\contentsline {subsection}{\numberline {5.1.2}Vis\IeC {\~a}o da Solu\IeC {\c c}\IeC {\~a}o}{47}{subsection.5.1.2}}
\newlabel{visaoSolucao}{{5.1.2}{47}{Visão da Solução}{subsection.5.1.2}{}}
\acro@used@twice{UML}{47}{47}{49}
\@@wrindexm@m{monografia}{UML@{UML}|hyperpage}{47}
\@writefile{lof}{\contentsline {figure}{\numberline {11}{\ignorespaces Cen\IeC {\'a}rio: equipe de desenvolvimento que utiliza quadros brancos para modelagem}}{48}{figure.5.11}}
\newlabel{fig:app1}{{11}{48}{Cenário: equipe de desenvolvimento que utiliza quadros brancos para modelagem}{figure.5.11}{}}
\acro@used@twice{case}{48}{48}{50}
\@@wrindexm@m{monografia}{case@{CASE}|hyperpage}{48}
\BKM@entry{id=55,dest={73756273756273656374696F6E2E352E312E322E31},srcline={74}}{486973745C33363372696173206465205573755C33343172696F}
\@writefile{lof}{\contentsline {figure}{\numberline {12}{\ignorespaces Cen\IeC {\'a}rio: equipe de desenvolvimento que utiliza quadros brancos para modelagem por\IeC {\'e}m possui uma ferramenta para extra\IeC {\c c}\IeC {\~a}o do diagrama}}{49}{figure.5.12}}
\newlabel{fig:app2}{{12}{49}{Cenário: equipe de desenvolvimento que utiliza quadros brancos para modelagem porém possui uma ferramenta para extração do diagrama}{figure.5.12}{}}
\gdef \LT@ii {\LT@entry 
    {1}{55.47911pt}\LT@entry 
    {1}{396.51219pt}}
\BKM@entry{id=56,dest={73756273756273656374696F6E2E352E312E322E32},srcline={93}}{5669735C3334336F20646F2050726F6475746F}
\BKM@entry{id=57,dest={73656374696F6E2E352E32},srcline={102}}{4661736520646520456C61626F72615C3334375C3334336F3A2049746572615C3334375C3334336F2031}
\BKM@entry{id=58,dest={73756273656374696F6E2E352E322E31},srcline={104}}{4D6F64656C6F20646520446F6D5C3335356E696F}
\@writefile{toc}{\contentsline {subsubsection}{\numberline {5.1.2.1}Hist\IeC {\'o}rias de Usu\IeC {\'a}rio}{50}{subsubsection.5.1.2.1}}
\@writefile{lot}{\contentsline {table}{\numberline {2}{Hist\IeC {\'o}rias de Usu\IeC {\'a}rio}}{50}{table.5.2}}
\newlabel{tab:historiasusuario}{{2}{50}{Histórias de Usuário}{table.5.2}{}}
\@writefile{toc}{\contentsline {subsubsection}{\numberline {5.1.2.2}Vis\IeC {\~a}o do Produto}{50}{subsubsection.5.1.2.2}}
\acro@used@twice{xml}{50}{50}{52}
\@@wrindexm@m{monografia}{xml@{XML}|hyperpage}{50}
\@writefile{toc}{\contentsline {section}{\numberline {5.2}Fase de Elabora\IeC {\c c}\IeC {\~a}o: Itera\IeC {\c c}\IeC {\~a}o 1}{50}{section.5.2}}
\newlabel{elaboracao}{{5.2}{50}{Fase de Elaboração: Iteração 1}{section.5.2}{}}
\BKM@entry{id=59,dest={73756273656374696F6E2E352E322E32},srcline={114}}{4172717569746574757261}
\BKM@entry{id=60,dest={73756273756273656374696F6E2E352E322E322E31},srcline={116}}{417271756974657475726120436C69656E7465}
\@writefile{lof}{\contentsline {figure}{\numberline {13}{\ignorespaces Produto de software.}}{51}{figure.5.13}}
\newlabel{fig:estruturaProduto}{{13}{51}{Produto de software}{figure.5.13}{}}
\@writefile{toc}{\contentsline {subsection}{\numberline {5.2.1}Modelo de Dom\IeC {\'\i }nio}{51}{subsection.5.2.1}}
\newlabel{modeloDominio}{{5.2.1}{51}{Modelo de Domínio}{subsection.5.2.1}{}}
\acro@used@twice{xmi}{51}{51}{53}
\@@wrindexm@m{monografia}{xmi@{XMI}|hyperpage}{51}
\@writefile{toc}{\contentsline {subsection}{\numberline {5.2.2}Arquitetura}{51}{subsection.5.2.2}}
\newlabel{arquitetura}{{5.2.2}{51}{Arquitetura}{subsection.5.2.2}{}}
\BKM@entry{id=61,dest={73756273756273656374696F6E2E352E322E322E32},srcline={125}}{4172717569746574757261205365727669646F72}
\@writefile{lof}{\contentsline {figure}{\numberline {14}{\ignorespaces Diagrama de classes: modelo de dom\IeC {\'\i }nio.}}{52}{figure.5.14}}
\newlabel{fig:modelodominio}{{14}{52}{Diagrama de classes: modelo de domínio}{figure.5.14}{}}
\@writefile{toc}{\contentsline {subsubsection}{\numberline {5.2.2.1}Arquitetura Cliente}{52}{subsubsection.5.2.2.1}}
\newlabel{arquiteturaCliente}{{5.2.2.1}{52}{Arquitetura Cliente}{subsubsection.5.2.2.1}{}}
\acro@used@twice{mvc}{52}{52}{54}
\@@wrindexm@m{monografia}{mvc@{MVC}|hyperpage}{52}
\@writefile{lof}{\contentsline {figure}{\numberline {15}{\ignorespaces Arquitetura cliente.}}{52}{figure.5.15}}
\newlabel{fig:arquiteturacliente}{{15}{52}{Arquitetura cliente}{figure.5.15}{}}
\BKM@entry{id=62,dest={73756273656374696F6E2E352E322E33},srcline={136}}{50726F636573736F206465205265636F6E686563696D656E746F}
\BKM@entry{id=63,dest={73656374696F6E2E352E33},srcline={146}}{436F6E7369646572615C3334375C333635657320646F204361705C33353574756C6F}
\@writefile{toc}{\contentsline {subsubsection}{\numberline {5.2.2.2}Arquitetura Servidor}{53}{subsubsection.5.2.2.2}}
\newlabel{arquiteturaServidor}{{5.2.2.2}{53}{Arquitetura Servidor}{subsubsection.5.2.2.2}{}}
\acro@used@once{dao}{53}{53}{55}
\@@wrindexm@m{monografia}{dao@{DAO}|hyperpage}{53}
\acro@used@twice{dao}{53}{53}{55}
\@@wrindexm@m{monografia}{dao@{DAO}|hyperpage}{53}
\acro@used@twice{dao}{53}{53}{55}
\@@wrindexm@m{monografia}{dao@{DAO}|hyperpage}{53}
\@writefile{lof}{\contentsline {figure}{\numberline {16}{\ignorespaces Arquitetura servidor.}}{53}{figure.5.16}}
\newlabel{fig:arquiteturaservidor}{{16}{53}{Arquitetura servidor}{figure.5.16}{}}
\@writefile{toc}{\contentsline {subsection}{\numberline {5.2.3}Processo de Reconhecimento}{53}{subsection.5.2.3}}
\newlabel{processoReconhecimento}{{5.2.3}{53}{Processo de Reconhecimento}{subsection.5.2.3}{}}
\@writefile{lof}{\contentsline {figure}{\numberline {17}{\ignorespaces Processo de reconhecimento.}}{54}{figure.5.17}}
\newlabel{fig:processoreconhecimento}{{17}{54}{Processo de reconhecimento}{figure.5.17}{}}
\@writefile{toc}{\contentsline {section}{\numberline {5.3}Considera\IeC {\c c}\IeC {\~o}es do Cap\IeC {\'\i }tulo}{54}{section.5.3}}
\newlabel{conclusaoResultados}{{5.3}{54}{Considerações do Capítulo}{section.5.3}{}}
\BKM@entry{id=64,dest={636861707465722E36},srcline={2}}{436F6E636C75735C3336356573205072656C696D696E61726573}
\BKM@entry{id=65,dest={73656374696F6E2E362E31},srcline={13}}{43726F6E6F6772616D61}
\gdef \LT@iii {\LT@entry 
    {1}{211.96927pt}\LT@entry 
    {1}{26.62636pt}\LT@entry 
    {1}{26.62636pt}\LT@entry 
    {1}{26.62636pt}\LT@entry 
    {1}{26.62636pt}\LT@entry 
    {1}{26.62636pt}\LT@entry 
    {1}{26.62636pt}\LT@entry 
    {1}{26.62636pt}\LT@entry 
    {1}{26.62636pt}\LT@entry 
    {1}{26.62636pt}\LT@entry 
    {1}{26.62636pt}}
\bibdata{abntex2-options,bibliografia}
\@writefile{toc}{\setlength  {\cftchapterindent }{0em} \setlength  {\cftchapternumwidth }{\cftlastnumwidth }}
\@writefile{toc}{\contentsline {chapter}{\chapternumberline {6}\MakeTextUppercase  {Conclus\IeC {\~o}es Preliminares}}{55}{chapter.6}}
\newlabel{conclusao}{{6}{55}{Conclusões Preliminares}{chapter.6}{}}
\acro@used@twice{UML}{55}{55}{57}
\@@wrindexm@m{monografia}{UML@{UML}|hyperpage}{55}
\acro@used@twice{case}{55}{55}{57}
\@@wrindexm@m{monografia}{case@{CASE}|hyperpage}{55}
\@writefile{toc}{\contentsline {section}{\numberline {6.1}Cronograma}{55}{section.6.1}}
\newlabel{cronograma}{{6.1}{55}{Cronograma}{section.6.1}{}}
\@writefile{lot}{\contentsline {table}{\numberline {3}{Cronograma}}{55}{table.6.3}}
\newlabel{tab:cronograma}{{3}{55}{Cronograma}{table.6.3}{}}
\@writefile{toc}{\vspace  {\cftbeforechapterskip }}
\BKM@entry{id=66,dest={73656374696F6E2A2E37},srcline={3}}{52656665725C3335326E63696173}
\bibcite{awal2011first}{Awal et al. 2011}
\bibciteEXPL{awal2011first}{Awal et al.}
\bibciteIMPL{awal2011first}{AWAL et al.}
\bibciteYEAR{awal2011first}{2011}
\bibcite{bartelt2013collaborative}{Bartelt, Vogel e Warnecke 2013}
\bibciteEXPL{bartelt2013collaborative}{Bartelt, Vogel e Warnecke}
\bibciteIMPL{bartelt2013collaborative}{BARTELT; VOGEL; WARNECKE}
\bibciteYEAR{bartelt2013collaborative}{2013}
\bibcite{blagojevic2011using}{Blagojevic et al. 2011}
\bibciteEXPL{blagojevic2011using}{Blagojevic et al.}
\bibciteIMPL{blagojevic2011using}{BLAGOJEVIC et al.}
\bibciteYEAR{blagojevic2011using}{2011}
\bibcite{booch2000uml}{Booch, Rumbaugh e Jacobson 2000}
\bibciteEXPL{booch2000uml}{Booch, Rumbaugh e Jacobson}
\bibciteIMPL{booch2000uml}{BOOCH; RUMBAUGH; JACOBSON}
\bibciteYEAR{booch2000uml}{2000}
\bibcite{bourque2014guide}{Bourque, Fairley et al. 2014}
\bibciteEXPL{bourque2014guide}{Bourque, Fairley et al.}
\bibciteIMPL{bourque2014guide}{BOURQUE; FAIRLEY et al.}
\bibciteYEAR{bourque2014guide}{2014}
\bibcite{buchanan2014cstutor}{Buchanan e Jr 2014}
\bibciteEXPL{buchanan2014cstutor}{Buchanan e Jr}
\bibciteIMPL{buchanan2014cstutor}{BUCHANAN; JR}
\bibciteYEAR{buchanan2014cstutor}{2014}
\bibcite{buchmann2012towards}{Buchmann 2012}
\bibciteEXPL{buchmann2012towards}{Buchmann}
\bibciteIMPL{buchmann2012towards}{BUCHMANN}
\bibciteYEAR{buchmann2012towards}{2012}
\bibcite{costagliola2014local}{Costagliola, Rosa e Fuccella 2014}
\bibciteEXPL{costagliola2014local}{Costagliola, Rosa e Fuccella}
\bibciteIMPL{costagliola2014local}{COSTAGLIOLA; ROSA; FUCCELLA}
\bibciteYEAR{costagliola2014local}{2014}
\bibcite{de2007ergonomia}{Cybis, Betiol e Faust 2007}
\bibciteEXPL{de2007ergonomia}{Cybis, Betiol e Faust}
\bibciteIMPL{de2007ergonomia}{CYBIS; BETIOL; FAUST}
\bibciteYEAR{de2007ergonomia}{2007}
\bibcite{androidStudio}{developer.android.com 2015}
\bibciteEXPL{androidStudio}{developer.android.com}
\bibciteIMPL{androidStudio}{DEVELOPER.ANDROID.COM}
\bibciteYEAR{androidStudio}{2015}
\bibcite{uml25}{diagrams.org 2015}
\bibciteEXPL{uml25}{diagrams.org}
\bibciteIMPL{uml25}{DIAGRAMS.ORG}
\bibciteYEAR{uml25}{2015}
\bibcite{eicholtz2014intermodal}{Eicholtz e Kara 2014}
\bibciteEXPL{eicholtz2014intermodal}{Eicholtz e Kara}
\bibciteIMPL{eicholtz2014intermodal}{EICHOLTZ; KARA}
\bibciteYEAR{eicholtz2014intermodal}{2014}
\bibcite{forbus2011cogsketch}{Forbus et al. 2011}
\bibciteEXPL{forbus2011cogsketch}{Forbus et al.}
\bibciteIMPL{forbus2011cogsketch}{FORBUS et al.}
\bibciteYEAR{forbus2011cogsketch}{2011}
\bibcite{fu2011engineering}{Fu e Kara 2011}
\bibciteEXPL{fu2011engineering}{Fu e Kara}
\bibciteIMPL{fu2011engineering}{FU; KARA}
\bibciteYEAR{fu2011engineering}{2011}
\@writefile{toc}{\setlength  {\cftchapterindent }{\cftlastnumwidth } \setlength  {\cftchapternumwidth }{2em}}
\@writefile{toc}{\contentsline {chapter}{\uppercase {Refer\^encias}}{57}{section*.7}}
\bibcite{fuggetta1993classification}{Fuggetta 1993}
\bibciteEXPL{fuggetta1993classification}{Fuggetta}
\bibciteIMPL{fuggetta1993classification}{FUGGETTA}
\bibciteYEAR{fuggetta1993classification}{1993}
\bibcite{ghorbel2014imisketch}{Ghorbel et al. 2014}
\bibciteEXPL{ghorbel2014imisketch}{Ghorbel et al.}
\bibciteIMPL{ghorbel2014imisketch}{GHORBEL et al.}
\bibciteYEAR{ghorbel2014imisketch}{2014}
\bibcite{gonzalez2010processamento}{GONZALEZ e WOODS 2010}
\bibciteEXPL{gonzalez2010processamento}{GONZALEZ e WOODS}
\bibciteIMPL{gonzalez2010processamento}{GONZALEZ; WOODS}
\bibciteYEAR{gonzalez2010processamento}{2010}
\bibcite{hammond2006tahuti}{Hammond e Davis 2006}
\bibciteEXPL{hammond2006tahuti}{Hammond e Davis}
\bibciteIMPL{hammond2006tahuti}{HAMMOND; DAVIS}
\bibciteYEAR{hammond2006tahuti}{2006}
\bibcite{jiang2011understanding}{Jiang et al. 2011}
\bibciteEXPL{jiang2011understanding}{Jiang et al.}
\bibciteIMPL{jiang2011understanding}{JIANG et al.}
\bibciteYEAR{jiang2011understanding}{2011}
\bibcite{karasneh2013extracting}{Karasneh e Chaudron 2013}
\bibciteEXPL{karasneh2013extracting}{Karasneh e Chaudron}
\bibciteIMPL{karasneh2013extracting}{KARASNEH; CHAUDRON}
\bibciteYEAR{karasneh2013extracting}{2013}
\bibcite{larman2000utilizando}{Larman 2005}
\bibciteEXPL{larman2000utilizando}{Larman}
\bibciteIMPL{larman2000utilizando}{LARMAN}
\bibciteYEAR{larman2000utilizando}{2005}
\bibcite{lecheta2013google}{Lecheta 2013}
\bibciteEXPL{lecheta2013google}{Lecheta}
\bibciteIMPL{lecheta2013google}{LECHETA}
\bibciteYEAR{lecheta2013google}{2013}
\bibcite{liao2012sketch}{Liao e Duan 2012}
\bibciteEXPL{liao2012sketch}{Liao e Duan}
\bibciteIMPL{liao2012sketch}{LIAO; DUAN}
\bibciteYEAR{liao2012sketch}{2012}
\bibcite{maggiori2014towards}{Maggiori et al. 2014}
\bibciteEXPL{maggiori2014towards}{Maggiori et al.}
\bibciteIMPL{maggiori2014towards}{MAGGIORI et al.}
\bibciteYEAR{maggiori2014towards}{2014}
\bibcite{mascardi2014holonic}{Mascardi et al. 2014}
\bibciteEXPL{mascardi2014holonic}{Mascardi et al.}
\bibciteIMPL{mascardi2014holonic}{MASCARDI et al.}
\bibciteYEAR{mascardi2014holonic}{2014}
\bibcite{opencv}{opencv.org 2015}
\bibciteEXPL{opencv}{opencv.org}
\bibciteIMPL{opencv}{OPENCV.ORG}
\bibciteYEAR{opencv}{2015}
\bibcite{pedrini2008analise}{Pedrini e Schwartz 2008}
\bibciteEXPL{pedrini2008analise}{Pedrini e Schwartz}
\bibciteIMPL{pedrini2008analise}{PEDRINI; SCHWARTZ}
\bibciteYEAR{pedrini2008analise}{2008}
\bibcite{pereira2009android}{PEREIRA e SILVA 2009}
\bibciteEXPL{pereira2009android}{PEREIRA e SILVA}
\bibciteIMPL{pereira2009android}{PEREIRA; SILVA}
\bibciteYEAR{pereira2009android}{2009}
\bibcite{petersen2008systematic}{Petersen et al. 2008}
\bibciteEXPL{petersen2008systematic}{Petersen et al.}
\bibciteIMPL{petersen2008systematic}{PETERSEN et al.}
\bibciteYEAR{petersen2008systematic}{2008}
\bibcite{pressman2011engenharia}{Pressman 2011}
\bibciteEXPL{pressman2011engenharia}{Pressman}
\bibciteIMPL{pressman2011engenharia}{PRESSMAN}
\bibciteYEAR{pressman2011engenharia}{2011}
\bibcite{sommerville2003engenharia}{Sommerville 2003}
\bibciteEXPL{sommerville2003engenharia}{Sommerville}
\bibciteIMPL{sommerville2003engenharia}{SOMMERVILLE}
\bibciteYEAR{sommerville2003engenharia}{2003}
\bibcite{sun2012query}{Sun et al. 2012}
\bibciteEXPL{sun2012query}{Sun et al.}
\bibciteIMPL{sun2012query}{SUN et al.}
\bibciteYEAR{sun2012query}{2012}
\bibcite{vashisht2012sketch}{Vashisht, Choudhury e Prasad 2012}
\bibciteEXPL{vashisht2012sketch}{Vashisht, Choudhury e Prasad}
\bibciteIMPL{vashisht2012sketch}{VASHISHT; CHOUDHURY; PRASAD}
\bibciteYEAR{vashisht2012sketch}{2012}
\bibcite{wuest2013flexisketch}{W{\"u}est, Seyff e Glinz 2013}
\bibciteEXPL{wuest2013flexisketch}{W{\"u}est, Seyff e Glinz}
\bibciteIMPL{wuest2013flexisketch}{W{\"U}EST; SEYFF; GLINZ}
\bibciteYEAR{wuest2013flexisketch}{2013}
\newlabel{LastPage}{{}{59}{}{page.59}{}}
\xdef\lastpage@lastpage{59}
\xdef\lastpage@lastpageHy{59}
\bibstyle{abntex2-alf}
\memsetcounter{lastsheet}{61}
\memsetcounter{lastpage}{59}
