\relax 
\providecommand\hyper@newdestlabel[2]{}
\providecommand\BKM@entry[2]{}
\providecommand\zref@newlabel[2]{}
\providecommand*{\memsetcounter}[2]{}
\providecommand\HyperFirstAtBeginDocument{\AtBeginDocument}
\HyperFirstAtBeginDocument{\ifx\hyper@anchor\@undefined
\global\let\oldcontentsline\contentsline
\gdef\contentsline#1#2#3#4{\oldcontentsline{#1}{#2}{#3}}
\global\let\oldnewlabel\newlabel
\gdef\newlabel#1#2{\newlabelxx{#1}#2}
\gdef\newlabelxx#1#2#3#4#5#6{\oldnewlabel{#1}{{#2}{#3}}}
\AtEndDocument{\ifx\hyper@anchor\@undefined
\let\contentsline\oldcontentsline
\let\newlabel\oldnewlabel
\fi}
\fi}
\global\let\hyper@last\relax 
\gdef\HyperFirstAtBeginDocument#1{#1}
\providecommand\HyField@AuxAddToFields[1]{}
\providecommand\HyField@AuxAddToCoFields[2]{}
\catcode`"\active
\citation{abnt-url-package=url}
\providecommand\acro@used@once[4]{}
\providecommand\acro@used@twice[4]{}
\providecommand\acro@pages[2]{}
\providecommand\acro@rerun@check{}
\@writefile{toc}{\changetocdepth  {4}}
\select@language{brazil}
\@writefile{toc}{\select@language{brazil}}
\@writefile{lof}{\select@language{brazil}}
\@writefile{lot}{\select@language{brazil}}
\BKM@entry{id=1,dest={6368617074657262312E30},srcline={323}}{466F6C686120646520726F73746F}
\BKM@entry{id=2,dest={6368617074657262322E30},srcline={2}}{526573756D6F}
\acro@used@once{uml}{3}{3}{5}
\@@wrindexm@m{monografia}{uml@{UML}|hyperpage}{3}
\acro@used@once{case}{3}{3}{5}
\@@wrindexm@m{monografia}{case@{CASE}|hyperpage}{3}
\acro@used@twice{case}{3}{3}{5}
\@@wrindexm@m{monografia}{case@{CASE}|hyperpage}{3}
\acro@used@twice{uml}{3}{3}{5}
\@@wrindexm@m{monografia}{uml@{UML}|hyperpage}{3}
\acro@used@twice{uml}{3}{3}{5}
\@@wrindexm@m{monografia}{uml@{UML}|hyperpage}{3}
\acro@used@twice{uml}{3}{3}{5}
\@@wrindexm@m{monografia}{uml@{UML}|hyperpage}{3}
\BKM@entry{id=3,dest={6368617074657262332E30},srcline={1}}{4162737472616374}
\acro@used@twice{uml}{5}{5}{7}
\@@wrindexm@m{monografia}{uml@{UML}|hyperpage}{5}
\acro@used@twice{case}{5}{5}{7}
\@@wrindexm@m{monografia}{case@{CASE}|hyperpage}{5}
\acro@used@twice{case}{5}{5}{7}
\@@wrindexm@m{monografia}{case@{CASE}|hyperpage}{5}
\acro@used@twice{uml}{5}{5}{7}
\@@wrindexm@m{monografia}{uml@{UML}|hyperpage}{5}
\acro@used@twice{uml}{5}{5}{7}
\@@wrindexm@m{monografia}{uml@{UML}|hyperpage}{5}
\acro@used@twice{uml}{5}{5}{7}
\@@wrindexm@m{monografia}{uml@{UML}|hyperpage}{5}
\BKM@entry{id=4,dest={6C6F662E30},srcline={362}}{4C6973746120646520696C75737472615C3334375C3336356573}
\@writefile{toc}{\setlength  {\cftchapterindent }{\cftlastnumwidth } \setlength  {\cftchapternumwidth }{2em}}
\acro@used@twice{uml}{7}{7}{9}
\@@wrindexm@m{monografia}{uml@{UML}|hyperpage}{7}
\acro@used@twice{uml}{7}{7}{9}
\@@wrindexm@m{monografia}{uml@{UML}|hyperpage}{7}
\BKM@entry{id=5,dest={6C6F742E30},srcline={367}}{4C6973746120646520746162656C6173}
\@writefile{toc}{\setlength  {\cftchapterindent }{\cftlastnumwidth } \setlength  {\cftchapternumwidth }{2em}}
\BKM@entry{id=6,dest={6C6F612E30},srcline={379}}{4C69737461206465207369676C6173}
\acro@print@list
\@writefile{toc}{\setlength  {\cftchapterindent }{\cftlastnumwidth } \setlength  {\cftchapternumwidth }{2em}}
\acro@used@once{xml}{11}{11}{13}
\@@wrindexm@m{monografia}{xml@{XML}|hyperpage}{11}
\BKM@entry{id=7,dest={6C6F732E30},srcline={385}}{4C6973746120646520735C3335356D626F6C6F73}
\BKM@entry{id=8,dest={746F632E30},srcline={393}}{53756D5C33343172696F}
\@writefile{toc}{\setlength  {\cftchapterindent }{\cftlastnumwidth } \setlength  {\cftchapternumwidth }{2em}}
\acro@used@twice{case}{13}{13}{15}
\@@wrindexm@m{monografia}{case@{CASE}|hyperpage}{13}
\acro@used@twice{uml}{13}{13}{15}
\@@wrindexm@m{monografia}{uml@{UML}|hyperpage}{13}
\BKM@entry{id=9,dest={636861707465722E31},srcline={2}}{496E74726F64755C3334375C3334336F}
\citation{booch2006uml}
\citation{bezerra2007principios}
\citation{booch2006uml}
\citation{booch2006uml}
\citation{booch2006uml}
\citation{booch2000uml}
\citation{sommerville2007engenharia}
\citation{bezerra2007principios}
\citation{sommerville2007engenharia}
\citation{ambler2002agile}
\@writefile{toc}{\setlength  {\cftchapterindent }{0em} \setlength  {\cftchapternumwidth }{\cftlastnumwidth }}
\@writefile{toc}{\contentsline {chapter}{\chapternumberline {1}\MakeTextUppercase  {Introdu\IeC {\c c}\IeC {\~a}o}}{15}{chapter.1}}
\newlabel{introducao}{{1}{15}{Introdução}{chapter.1}{}}
\@writefile{brf}{\backcite{booch2006uml}{{15}{1}{chapter.1}}}
\@writefile{brf}{\backcite{bezerra2007principios}{{15}{1}{chapter.1}}}
\@writefile{brf}{\backcite{booch2006uml}{{15}{1}{chapter.1}}}
\@writefile{brf}{\backcite{booch2006uml}{{15}{1}{chapter.1}}}
\@writefile{brf}{\backcite{booch2006uml}{{15}{1}{chapter.1}}}
\acro@used@twice{uml}{15}{15}{17}
\@@wrindexm@m{monografia}{uml@{UML}|hyperpage}{15}
\acro@used@once{oose}{15}{15}{17}
\@@wrindexm@m{monografia}{oose@{OOSE}|hyperpage}{15}
\acro@used@once{omt}{15}{15}{17}
\@@wrindexm@m{monografia}{omt@{OMT}|hyperpage}{15}
\acro@used@twice{uml}{15}{15}{17}
\@@wrindexm@m{monografia}{uml@{UML}|hyperpage}{15}
\@writefile{brf}{\backcite{booch2000uml}{{15}{1}{chapter.1}}}
\@writefile{brf}{\backcite{sommerville2007engenharia}{{15}{1}{chapter.1}}}
\acro@used@twice{uml}{15}{15}{17}
\@@wrindexm@m{monografia}{uml@{UML}|hyperpage}{15}
\acro@used@twice{case}{15}{15}{17}
\@@wrindexm@m{monografia}{case@{CASE}|hyperpage}{15}
\@writefile{brf}{\backcite{bezerra2007principios}{{15}{1}{chapter.1}}}
\@writefile{brf}{\backcite{sommerville2007engenharia}{{15}{1}{chapter.1}}}
\@writefile{brf}{\backcite{ambler2002agile}{{15}{1}{chapter.1}}}
\BKM@entry{id=10,dest={73656374696F6E2E312E31},srcline={28}}{4D6F746976615C3334375C3334336F}
\citation{8osman2013web}
\citation{larman2007utilizando}
\BKM@entry{id=11,dest={73656374696F6E2E312E32},srcline={47}}{4F626A657469766F73}
\@writefile{toc}{\contentsline {section}{\numberline {1.1}Motiva\IeC {\c c}\IeC {\~a}o}{16}{section.1.1}}
\newlabel{sec:motivacao}{{1.1}{16}{Motivação}{section.1.1}{}}
\@writefile{brf}{\backcite{8osman2013web}{{16}{1.1}{section.1.1}}}
\@writefile{brf}{\backcite{larman2007utilizando}{{16}{1.1}{section.1.1}}}
\acro@used@once{xp}{16}{16}{18}
\@@wrindexm@m{monografia}{xp@{XP}|hyperpage}{16}
\acro@used@twice{case}{16}{16}{18}
\@@wrindexm@m{monografia}{case@{CASE}|hyperpage}{16}
\acro@used@twice{case}{16}{16}{18}
\@@wrindexm@m{monografia}{case@{CASE}|hyperpage}{16}
\@writefile{toc}{\contentsline {section}{\numberline {1.2}Objetivos}{16}{section.1.2}}
\newlabel{sec:objetivos}{{1.2}{16}{Objetivos}{section.1.2}{}}
\acro@used@twice{uml}{16}{16}{18}
\@@wrindexm@m{monografia}{uml@{UML}|hyperpage}{16}
\BKM@entry{id=12,dest={73656374696F6E2E312E33},srcline={62}}{4D65746F646F6C6F6769612064652054726162616C686F}
\BKM@entry{id=13,dest={73656374696F6E2E312E34},srcline={76}}{4F7267616E697A615C3334375C3334336F20646F2052657374616E746520646F2054726162616C686F}
\acro@used@twice{uml}{17}{17}{19}
\@@wrindexm@m{monografia}{uml@{UML}|hyperpage}{17}
\@writefile{toc}{\contentsline {section}{\numberline {1.3}Metodologia de Trabalho}{17}{section.1.3}}
\newlabel{sec:metodologia}{{1.3}{17}{Metodologia de Trabalho}{section.1.3}{}}
\acro@used@twice{uml}{17}{17}{19}
\@@wrindexm@m{monografia}{uml@{UML}|hyperpage}{17}
\acro@used@once{tcc}{17}{17}{19}
\@@wrindexm@m{monografia}{tcc@{TCC}|hyperpage}{17}
\@writefile{toc}{\contentsline {section}{\numberline {1.4}Organiza\IeC {\c c}\IeC {\~a}o do Restante do Trabalho}{17}{section.1.4}}
\newlabel{sec:organiza\IeC {\c c}\IeC {\~a}o}{{1.4}{17}{Organização do Restante do Trabalho}{section.1.4}{}}
\acro@used@twice{case}{17}{17}{19}
\@@wrindexm@m{monografia}{case@{CASE}|hyperpage}{17}
\acro@used@twice{uml}{17}{17}{19}
\@@wrindexm@m{monografia}{uml@{UML}|hyperpage}{17}
\BKM@entry{id=14,dest={636861707465722E32},srcline={2}}{46756E64616D656E74615C3334375C3334336F2054655C33363372696361}
\BKM@entry{id=15,dest={73656374696F6E2E322E31},srcline={7}}{46657272616D656E7461732043415345}
\citation{schach2009engenharia}
\citation{sommerville2007engenharia}
\citation{sommerville2007engenharia}
\citation{schach2009engenharia}
\citation{schach2009engenharia}
\citation{sommerville2007engenharia}
\citation{schach2009engenharia}
\citation{sommerville2007engenharia}
\citation{schach2009engenharia}
\citation{sommerville2007engenharia}
\citation{schach2009engenharia}
\citation{schach2009engenharia}
\@writefile{toc}{\setlength  {\cftchapterindent }{0em} \setlength  {\cftchapternumwidth }{\cftlastnumwidth }}
\@writefile{toc}{\contentsline {chapter}{\chapternumberline {2}\MakeTextUppercase  {Fundamenta\IeC {\c c}\IeC {\~a}o Te\IeC {\'o}rica}}{19}{chapter.2}}
\newlabel{fundamentacaoTeorica}{{2}{19}{Fundamentação Teórica}{chapter.2}{}}
\acro@used@twice{case}{19}{19}{21}
\@@wrindexm@m{monografia}{case@{CASE}|hyperpage}{19}
\acro@used@twice{uml}{19}{19}{21}
\@@wrindexm@m{monografia}{uml@{UML}|hyperpage}{19}
\acro@used@twice{case}{19}{19}{21}
\@@wrindexm@m{monografia}{case@{CASE}|hyperpage}{19}
\@writefile{toc}{\contentsline {section}{\numberline {2.1}Ferramentas \ac {case}}{19}{section.2.1}}
\newlabel{sec:ferramentasCase}{{2.1}{19}{Ferramentas \ac {case}}{section.2.1}{}}
\acro@used@twice{case}{19}{19}{21}
\@@wrindexm@m{monografia}{case@{CASE}|hyperpage}{19}
\acro@used@twice{case}{19}{19}{21}
\@@wrindexm@m{monografia}{case@{CASE}|hyperpage}{19}
\@writefile{brf}{\backcite{schach2009engenharia}{{19}{2.1}{section.2.1}}}
\@writefile{brf}{\backcite{sommerville2007engenharia}{{19}{2.1}{section.2.1}}}
\acro@used@twice{case}{19}{19}{21}
\@@wrindexm@m{monografia}{case@{CASE}|hyperpage}{19}
\acro@used@twice{case}{19}{19}{21}
\@@wrindexm@m{monografia}{case@{CASE}|hyperpage}{19}
\@writefile{brf}{\backcite{sommerville2007engenharia}{{19}{2.1}{section.2.1}}}
\@writefile{brf}{\backcite{schach2009engenharia}{{19}{2.1}{section.2.1}}}
\@writefile{brf}{\backcite{schach2009engenharia}{{19}{2.1}{section.2.1}}}
\acro@used@twice{case}{19}{19}{21}
\@@wrindexm@m{monografia}{case@{CASE}|hyperpage}{19}
\@writefile{brf}{\backcite{sommerville2007engenharia}{{19}{2.1}{section.2.1}}}
\acro@used@twice{uml}{19}{19}{21}
\@@wrindexm@m{monografia}{uml@{UML}|hyperpage}{19}
\acro@used@twice{case}{19}{19}{21}
\@@wrindexm@m{monografia}{case@{CASE}|hyperpage}{19}
\@writefile{brf}{\backcite{schach2009engenharia, sommerville2007engenharia}{{19}{2.1}{section.2.1}}}
\@writefile{brf}{\backcite{schach2009engenharia, sommerville2007engenharia}{{19}{2.1}{section.2.1}}}
\@writefile{brf}{\backcite{schach2009engenharia, sommerville2007engenharia}{{19}{2.1}{section.2.1}}}
\@writefile{brf}{\backcite{schach2009engenharia, sommerville2007engenharia}{{19}{2.1}{section.2.1}}}
\BKM@entry{id=16,dest={73656374696F6E2E322E32},srcline={31}}{4C696E67756167656D20554D4C}
\citation{booch2006uml}
\citation{larman2007utilizando}
\citation{cardoso2003uml}
\citation{bezerra2007principios}
\citation{omg2015}
\citation{bezerra2007principios}
\citation{booch2006uml}
\@writefile{lof}{\contentsline {figure}{\numberline {1}{\ignorespaces Representa\IeC {\c c}\IeC {\~a}o de (A) ferramenta, (B) plataforma e (C) ambiente.}}{20}{figure.2.1}}
\newlabel{fig:ferramenta_plataforma_ambiente}{{1}{20}{Representação de (A) ferramenta, (B) plataforma e (C) ambiente}{figure.2.1}{}}
\@writefile{brf}{\backcite{schach2009engenharia}{{20}{1}{figure.2.1}}}
\acro@used@twice{case}{20}{20}{22}
\@@wrindexm@m{monografia}{case@{CASE}|hyperpage}{20}
\acro@used@twice{uml}{20}{20}{22}
\@@wrindexm@m{monografia}{uml@{UML}|hyperpage}{20}
\@writefile{toc}{\contentsline {section}{\numberline {2.2}Linguagem \ac {uml}}{20}{section.2.2}}
\newlabel{sec:linguagemUML}{{2.2}{20}{Linguagem \ac {uml}}{section.2.2}{}}
\acro@used@twice{uml}{20}{20}{22}
\@@wrindexm@m{monografia}{uml@{UML}|hyperpage}{20}
\@writefile{brf}{\backcite{booch2006uml}{{20}{2.2}{section.2.2}}}
\@writefile{brf}{\backcite{larman2007utilizando}{{20}{2.2}{section.2.2}}}
\@writefile{brf}{\backcite{cardoso2003uml}{{20}{2.2}{section.2.2}}}
\@writefile{brf}{\backcite{bezerra2007principios}{{20}{2.2}{section.2.2}}}
\acro@used@twice{uml}{20}{20}{22}
\@@wrindexm@m{monografia}{uml@{UML}|hyperpage}{20}
\@writefile{brf}{\backcite{omg2015}{{20}{2.2}{section.2.2}}}
\@writefile{brf}{\backcite{bezerra2007principios}{{20}{2.2}{section.2.2}}}
\acro@used@twice{uml}{20}{20}{22}
\@@wrindexm@m{monografia}{uml@{UML}|hyperpage}{20}
\BKM@entry{id=17,dest={73756273656374696F6E2E322E322E31},srcline={41}}{4469616772616D6173}
\citation{bezerra2007principios}
\citation{wazlawick2011analise}
\citation{bezerra2007principios}
\citation{omg2015}
\citation{bezerra2007principios}
\citation{bezerra2007principios}
\citation{omg2015}
\citation{bezerra2007principios}
\citation{omg2015}
\citation{omg2015}
\BKM@entry{id=18,dest={73656374696F6E2E322E33},srcline={67}}{4D6F64656C6167656D20646520536F667477617265}
\citation{bezerra2007principios}
\@writefile{brf}{\backcite{booch2006uml}{{21}{2.2}{section.2.2}}}
\acro@used@twice{uml}{21}{21}{23}
\@@wrindexm@m{monografia}{uml@{UML}|hyperpage}{21}
\acro@used@twice{uml}{21}{21}{23}
\@@wrindexm@m{monografia}{uml@{UML}|hyperpage}{21}
\@writefile{toc}{\contentsline {subsection}{\numberline {2.2.1}Diagramas}{21}{subsection.2.2.1}}
\newlabel{sec:linguagemUML_Diagramas}{{2.2.1}{21}{Diagramas}{subsection.2.2.1}{}}
\@writefile{brf}{\backcite{bezerra2007principios}{{21}{2.2.1}{subsection.2.2.1}}}
\acro@used@twice{uml}{21}{21}{23}
\@@wrindexm@m{monografia}{uml@{UML}|hyperpage}{21}
\@writefile{brf}{\backcite{wazlawick2011analise}{{21}{2.2.1}{subsection.2.2.1}}}
\@writefile{brf}{\backcite{bezerra2007principios}{{21}{2.2.1}{subsection.2.2.1}}}
\acro@used@twice{uml}{21}{21}{23}
\@@wrindexm@m{monografia}{uml@{UML}|hyperpage}{21}
\@writefile{brf}{\backcite{omg2015}{{21}{2.2.1}{subsection.2.2.1}}}
\acro@used@twice{uml}{21}{21}{23}
\@@wrindexm@m{monografia}{uml@{UML}|hyperpage}{21}
\@writefile{brf}{\backcite{omg2015}{{21}{2.2.1}{figure.2.2}}}
\@writefile{brf}{\backcite{bezerra2007principios}{{21}{2.2.1}{figure.2.2}}}
\acro@used@twice{uml}{21}{21}{23}
\@@wrindexm@m{monografia}{uml@{UML}|hyperpage}{21}
\@writefile{toc}{\contentsline {section}{\numberline {2.3}Modelagem de Software}{21}{section.2.3}}
\newlabel{sec:modelagemSoftware}{{2.3}{21}{Modelagem de Software}{section.2.3}{}}
\@writefile{brf}{\backcite{bezerra2007principios}{{21}{2.3}{section.2.3}}}
\BKM@entry{id=19,dest={73756273656374696F6E2E322E332E31},srcline={79}}{4D6F64656C6167656D20496E646976696475616C}
\citation{bezerra2007principios}
\@writefile{lof}{\contentsline {figure}{\numberline {2}{\ignorespaces Diagramas da \ac {uml} 2.0 }}{22}{figure.2.2}}
\acro@used@twice{uml}{22}{22}{24}
\@@wrindexm@m{monografia}{uml@{UML}|hyperpage}{22}
\newlabel{fig:diagramas_uml20}{{2}{22}{Diagramas da \ac {uml} 2.0}{figure.2.2}{}}
\@writefile{brf}{\backcite{bezerra2007principios}{{22}{2}{figure.2.2}}}
\@writefile{lof}{\contentsline {figure}{\numberline {3}{\ignorespaces Diagramas da \ac {uml} 2.5 }}{22}{figure.2.3}}
\acro@used@twice{uml}{22}{22}{24}
\@@wrindexm@m{monografia}{uml@{UML}|hyperpage}{22}
\newlabel{fig:diagramas_uml25}{{3}{22}{Diagramas da \ac {uml} 2.5}{figure.2.3}{}}
\@writefile{brf}{\backcite{omg2015}{{22}{3}{figure.2.3}}}
\citation{1michaux2011semantically}
\BKM@entry{id=20,dest={73756273656374696F6E2E322E332E32},srcline={85}}{4D6F64656C6167656D20436F6C61626F726174697661}
\citation{larman2007utilizando}
\citation{larman2007utilizando}
\citation{19bartelt2013}
\citation{larman2007utilizando}
\citation{20dirixawareness}
\citation{19bartelt2013}
\citation{8osman2013web}
\@writefile{toc}{\contentsline {subsection}{\numberline {2.3.1}Modelagem Individual}{23}{subsection.2.3.1}}
\newlabel{sub:modelagemIndividual}{{2.3.1}{23}{Modelagem Individual}{subsection.2.3.1}{}}
\@writefile{brf}{\backcite{bezerra2007principios}{{23}{2.3.1}{subsection.2.3.1}}}
\@writefile{brf}{\backcite{1michaux2011semantically}{{23}{2.3.1}{subsection.2.3.1}}}
\@writefile{toc}{\contentsline {subsection}{\numberline {2.3.2}Modelagem Colaborativa}{23}{subsection.2.3.2}}
\newlabel{sub:modelagemColaborativa}{{2.3.2}{23}{Modelagem Colaborativa}{subsection.2.3.2}{}}
\@writefile{brf}{\backcite{larman2007utilizando}{{23}{2.3.2}{subsection.2.3.2}}}
\@writefile{brf}{\backcite{larman2007utilizando}{{23}{2.3.2}{subsection.2.3.2}}}
\@writefile{brf}{\backcite{19bartelt2013}{{23}{2.3.2}{subsection.2.3.2}}}
\@writefile{brf}{\backcite{larman2007utilizando}{{23}{2.3.2}{subsection.2.3.2}}}
\@writefile{brf}{\backcite{20dirixawareness}{{23}{2.3.2}{subsection.2.3.2}}}
\@writefile{brf}{\backcite{19bartelt2013}{{23}{2.3.2}{subsection.2.3.2}}}
\@writefile{brf}{\backcite{8osman2013web}{{23}{2.3.2}{subsection.2.3.2}}}
\BKM@entry{id=21,dest={73656374696F6E2E322E34},srcline={100}}{436F6D756E6963615C3334375C3334336F2064652041706C6963615C3334375C3336356573}
\citation{tanenbaum2007sistemas}
\citation{coulouris2007sistemas}
\citation{tanenbaum2007sistemas}
\citation{tanenbaum2007sistemas}
\citation{coulouris2007sistemas}
\citation{tanenbaum2007sistemas}
\citation{tanenbaum2007sistemas}
\citation{coulouris2007sistemas}
\BKM@entry{id=22,dest={73656374696F6E2E322E35},srcline={116}}{436F6E7369646572615C3334375C333635657320646F204361705C33353574756C6F}
\@writefile{toc}{\contentsline {section}{\numberline {2.4}Comunica\IeC {\c c}\IeC {\~a}o de Aplica\IeC {\c c}\IeC {\~o}es}{24}{section.2.4}}
\newlabel{sec:comunica\IeC {\c c}\IeC {\~a}o}{{2.4}{24}{Comunicação de Aplicações}{section.2.4}{}}
\@writefile{brf}{\backcite{tanenbaum2007sistemas}{{24}{2.4}{section.2.4}}}
\@writefile{brf}{\backcite{coulouris2007sistemas}{{24}{2.4}{section.2.4}}}
\@writefile{brf}{\backcite{tanenbaum2007sistemas}{{24}{2.4}{section.2.4}}}
\@writefile{brf}{\backcite{tanenbaum2007sistemas}{{24}{2.4}{section.2.4}}}
\@writefile{brf}{\backcite{coulouris2007sistemas}{{24}{2.4}{section.2.4}}}
\@writefile{brf}{\backcite{tanenbaum2007sistemas}{{24}{2.4}{section.2.4}}}
\@writefile{brf}{\backcite{tanenbaum2007sistemas}{{24}{2.4}{section.2.4}}}
\@writefile{brf}{\backcite{coulouris2007sistemas}{{24}{2.4}{section.2.4}}}
\@writefile{toc}{\contentsline {section}{\numberline {2.5}Considera\IeC {\c c}\IeC {\~o}es do Cap\IeC {\'\i }tulo}{25}{section.2.5}}
\newlabel{sec:conclus\IeC {\~a}oReferencial}{{2.5}{25}{Considerações do Capítulo}{section.2.5}{}}
\acro@used@twice{case}{25}{25}{27}
\@@wrindexm@m{monografia}{case@{CASE}|hyperpage}{25}
\acro@used@twice{uml}{25}{25}{27}
\@@wrindexm@m{monografia}{uml@{UML}|hyperpage}{25}
\acro@used@twice{case}{25}{25}{27}
\@@wrindexm@m{monografia}{case@{CASE}|hyperpage}{25}
\acro@used@twice{uml}{25}{25}{27}
\@@wrindexm@m{monografia}{uml@{UML}|hyperpage}{25}
\BKM@entry{id=23,dest={636861707465722E33},srcline={2}}{4D5C333531746F646F732065205265637572736F73}
\BKM@entry{id=24,dest={73656374696F6E2E332E31},srcline={8}}{50725C333431746963617320646520456E67656E686172696120646520536F667477617265}
\BKM@entry{id=25,dest={73756273656374696F6E2E332E312E31},srcline={11}}{50726F636573736F20556E6966696361646F}
\citation{larman2007utilizando}
\citation{larman2007utilizando}
\citation{larman2007utilizando}
\citation{larman2007utilizando}
\@writefile{toc}{\setlength  {\cftchapterindent }{0em} \setlength  {\cftchapternumwidth }{\cftlastnumwidth }}
\@writefile{toc}{\contentsline {chapter}{\chapternumberline {3}\MakeTextUppercase  {M\IeC {\'e}todos e Recursos}}{27}{chapter.3}}
\newlabel{metodosRecursos}{{3}{27}{Métodos e Recursos}{chapter.3}{}}
\@writefile{toc}{\contentsline {section}{\numberline {3.1}Pr\IeC {\'a}ticas de Engenharia de \textit  {Software}}{27}{section.3.1}}
\newlabel{sec:praticasES}{{3.1}{27}{Práticas de Engenharia de \textit {Software}}{section.3.1}{}}
\@writefile{toc}{\contentsline {subsection}{\numberline {3.1.1}Processo Unificado}{27}{subsection.3.1.1}}
\newlabel{sub:processoUnificado}{{3.1.1}{27}{Processo Unificado}{subsection.3.1.1}{}}
\@writefile{brf}{\backcite{larman2007utilizando}{{27}{3.1.1}{subsection.3.1.1}}}
\@writefile{brf}{\backcite{larman2007utilizando}{{27}{3.1.1}{subsection.3.1.1}}}
\acro@used@twice{xp}{27}{27}{29}
\@@wrindexm@m{monografia}{xp@{XP}|hyperpage}{27}
\@writefile{brf}{\backcite{larman2007utilizando}{{27}{3.1.1}{subsection.3.1.1}}}
\acro@used@twice{uml}{27}{27}{29}
\@@wrindexm@m{monografia}{uml@{UML}|hyperpage}{27}
\@writefile{brf}{\backcite{larman2007utilizando}{{27}{3.1.1}{subsection.3.1.1}}}
\citation{larman2007utilizando}
\@writefile{brf}{\backcite{larman2007utilizando}{{28}{3.1.1}{subsection.3.1.1}}}
\BKM@entry{id=26,dest={73756273656374696F6E2E332E312E32},srcline={57}}{53746F7279426F617264}
\citation{braga2013proposta}
\citation{storyBoardsmedeiros}
\BKM@entry{id=27,dest={73756273656374696F6E2E332E312E33},srcline={65}}{486973745C33363372696173206465205573755C33343172696F73}
\citation{historiasUsuarios2004}
\@writefile{lof}{\contentsline {figure}{\numberline {4}{\ignorespaces Disciplinas e Fases do Processo Unificado.}}{29}{figure.3.4}}
\newlabel{fig:processoUnificado}{{4}{29}{Disciplinas e Fases do Processo Unificado}{figure.3.4}{}}
\@writefile{toc}{\contentsline {subsection}{\numberline {3.1.2}\textit  {StoryBoard}}{29}{subsection.3.1.2}}
\newlabel{sub:storyBoard}{{3.1.2}{29}{\textit {StoryBoard}}{subsection.3.1.2}{}}
\@writefile{brf}{\backcite{braga2013proposta}{{29}{3.1.2}{subsection.3.1.2}}}
\@writefile{brf}{\backcite{storyBoardsmedeiros}{{29}{3.1.2}{subsection.3.1.2}}}
\BKM@entry{id=28,dest={73656374696F6E2E332E32},srcline={82}}{41727175697465747572612064652073697374656D61732064697374726962755C333535646F73}
\citation{tanenbaum2007sistemas}
\citation{coulouris2007sistemas}
\citation{sommerville2007engenharia}
\citation{coulouris2007sistemas}
\@writefile{toc}{\contentsline {subsection}{\numberline {3.1.3}Hist\IeC {\'o}rias de Usu\IeC {\'a}rios}{30}{subsection.3.1.3}}
\newlabel{sub:historiasUsuarios}{{3.1.3}{30}{Histórias de Usuários}{subsection.3.1.3}{}}
\@writefile{brf}{\backcite{historiasUsuarios2004}{{30}{3.1.3}{subsection.3.1.3}}}
\acro@used@twice{xp}{30}{30}{32}
\@@wrindexm@m{monografia}{xp@{XP}|hyperpage}{30}
\@writefile{lof}{\contentsline {figure}{\numberline {5}{\ignorespaces Exemplo de hist\IeC {\'o}rias de usu\IeC {\'a}rios.}}{30}{figure.3.5}}
\newlabel{fig:historiaUsuario}{{5}{30}{Exemplo de histórias de usuários}{figure.3.5}{}}
\@writefile{toc}{\contentsline {section}{\numberline {3.2}Arquitetura de sistemas distribu\IeC {\'\i }dos}{30}{section.3.2}}
\newlabel{sec:sistemasDistribuidos}{{3.2}{30}{Arquitetura de sistemas distribuídos}{section.3.2}{}}
\@writefile{brf}{\backcite{tanenbaum2007sistemas}{{30}{3.2}{section.3.2}}}
\@writefile{brf}{\backcite{coulouris2007sistemas}{{30}{3.2}{section.3.2}}}
\@writefile{brf}{\backcite{sommerville2007engenharia}{{30}{3.2}{section.3.2}}}
\@writefile{brf}{\backcite{coulouris2007sistemas}{{30}{3.2}{section.3.2}}}
\citation{sommerville2007engenharia}
\@writefile{brf}{\backcite{sommerville2007engenharia}{{31}{3.2}{section.3.2}}}
\BKM@entry{id=29,dest={73756273656374696F6E2E332E322E31},srcline={132}}{41727175697465747572617320706565722D746F2D70656572}
\citation{kamienski2005colaboraccao}
\citation{sommerville2007engenharia}
\citation{coulouris2007sistemas}
\citation{sommerville2007engenharia}
\citation{sommerville2007engenharia}
\citation{kamienski2005colaboraccao}
\citation{sommerville2007engenharia}
\citation{sommerville2007engenharia}
\@writefile{toc}{\contentsline {subsection}{\numberline {3.2.1}Arquiteturas \textit  {peer-to-peer}}{32}{subsection.3.2.1}}
\newlabel{sub:peerToPeer}{{3.2.1}{32}{Arquiteturas \textit {peer-to-peer}}{subsection.3.2.1}{}}
\@writefile{brf}{\backcite{kamienski2005colaboraccao}{{32}{3.2.1}{subsection.3.2.1}}}
\@writefile{brf}{\backcite{sommerville2007engenharia}{{32}{3.2.1}{subsection.3.2.1}}}
\@writefile{brf}{\backcite{coulouris2007sistemas}{{32}{3.2.1}{subsection.3.2.1}}}
\@writefile{brf}{\backcite{sommerville2007engenharia}{{32}{3.2.1}{subsection.3.2.1}}}
\@writefile{brf}{\backcite{sommerville2007engenharia,kamienski2005colaboraccao}{{32}{3.2.1}{subsection.3.2.1}}}
\@writefile{brf}{\backcite{sommerville2007engenharia,kamienski2005colaboraccao}{{32}{3.2.1}{subsection.3.2.1}}}
\BKM@entry{id=30,dest={73656374696F6E2E332E33},srcline={168}}{506C617461666F726D61204A585441}
\citation{jxta2015}
\@writefile{lof}{\contentsline {figure}{\numberline {6}{\ignorespaces Arquitetura \textit  {peer-to-peer} descentralizada.}}{33}{figure.3.6}}
\newlabel{fig:peerToPeerDescentralizada}{{6}{33}{Arquitetura \textit {peer-to-peer} descentralizada}{figure.3.6}{}}
\@writefile{lof}{\contentsline {figure}{\numberline {7}{\ignorespaces Arquitetura \textit  {peer-to-peer} semicentralizada.}}{33}{figure.3.7}}
\newlabel{fig:peerToPeerSemi}{{7}{33}{Arquitetura \textit {peer-to-peer} semicentralizada}{figure.3.7}{}}
\@writefile{brf}{\backcite{sommerville2007engenharia}{{33}{7}{figure.3.7}}}
\BKM@entry{id=31,dest={73756273656374696F6E2E332E332E31},srcline={179}}{4172717569746574757261204A585441}
\citation{juniorcompartilhamento}
\citation{juniorcompartilhamento}
\citation{juniorcompartilhamento}
\citation{jxta2015}
\@writefile{toc}{\contentsline {section}{\numberline {3.3}Plataforma JXTA}{34}{section.3.3}}
\newlabel{sec:plataformaJXTA}{{3.3}{34}{Plataforma JXTA}{section.3.3}{}}
\@writefile{brf}{\backcite{jxta2015}{{34}{3.3}{section.3.3}}}
\@writefile{toc}{\contentsline {subsection}{\numberline {3.3.1}Arquitetura JXTA}{34}{subsection.3.3.1}}
\newlabel{sub:arquiteturaJXTA}{{3.3.1}{34}{Arquitetura JXTA}{subsection.3.3.1}{}}
\@writefile{lof}{\contentsline {figure}{\numberline {8}{\ignorespaces Arquitetura de camadas JXTA.}}{34}{figure.3.8}}
\newlabel{fig:jxtaArquitetura}{{8}{34}{Arquitetura de camadas JXTA}{figure.3.8}{}}
\@writefile{brf}{\backcite{juniorcompartilhamento}{{34}{8}{figure.3.8}}}
\citation{juniorcompartilhamento}
\citation{jxta2015}
\citation{juniorcompartilhamento}
\citation{jxta2015}
\BKM@entry{id=32,dest={73656374696F6E2E332E34},srcline={195}}{436F6E7369646572615C3334375C333635657320646F204361705C33353574756C6F}
\@writefile{brf}{\backcite{juniorcompartilhamento, jxta2015}{{35}{3.3.1}{figure.3.8}}}
\@writefile{brf}{\backcite{juniorcompartilhamento, jxta2015}{{35}{3.3.1}{figure.3.8}}}
\@writefile{brf}{\backcite{juniorcompartilhamento, jxta2015}{{35}{3.3.1}{figure.3.8}}}
\@writefile{brf}{\backcite{juniorcompartilhamento, jxta2015}{{35}{3.3.1}{figure.3.8}}}
\@writefile{brf}{\backcite{juniorcompartilhamento, jxta2015}{{35}{3.3.1}{figure.3.8}}}
\@writefile{brf}{\backcite{juniorcompartilhamento, jxta2015}{{35}{3.3.1}{figure.3.8}}}
\@writefile{toc}{\contentsline {section}{\numberline {3.4}Considera\IeC {\c c}\IeC {\~o}es do Cap\IeC {\'\i }tulo}{35}{section.3.4}}
\newlabel{sec:conclusaoMetodosRecursos}{{3.4}{35}{Considerações do Capítulo}{section.3.4}{}}
\BKM@entry{id=33,dest={636861707465722E34},srcline={2}}{54726162616C686F732052656C6163696F6E61646F73}
\citation{petersen2008systematic}
\BKM@entry{id=34,dest={73656374696F6E2E342E31},srcline={10}}{4D65746F646F6C6F676961}
\@writefile{toc}{\setlength  {\cftchapterindent }{0em} \setlength  {\cftchapternumwidth }{\cftlastnumwidth }}
\@writefile{toc}{\contentsline {chapter}{\chapternumberline {4}\MakeTextUppercase  {Trabalhos Relacionados}}{37}{chapter.4}}
\newlabel{trabalhosRelacionados}{{4}{37}{Trabalhos Relacionados}{chapter.4}{}}
\@writefile{brf}{\backcite{petersen2008systematic}{{37}{4}{chapter.4}}}
\@writefile{toc}{\contentsline {section}{\numberline {4.1}Metodologia}{37}{section.4.1}}
\newlabel{sec:trabalhosRelacionados_metodologia}{{4.1}{37}{Metodologia}{section.4.1}{}}
\acro@used@twice{uml}{37}{37}{39}
\@@wrindexm@m{monografia}{uml@{UML}|hyperpage}{37}
\BKM@entry{id=35,dest={73656374696F6E2E342E32},srcline={54}}{526573756C7461646F}
\BKM@entry{id=36,dest={73756273656374696F6E2E342E322E31},srcline={63}}{517561697320735C3334336F20617320706C617461666F726D6173206F6E64652061732061747561697320736F6C755C3334375C333635657320726F64616D3F}
\citation{4nicolaescu2013browser}
\citation{6jiang2014stigmergy}
\citation{8osman2013web}
\citation{25azevedo2013development}
\citation{13maroti2014online}
\citation{22cognini2013collaborative}
\citation{17doweling2013collaborative}
\citation{3dollmann2011collaborative}
\citation{28lins2011ssc4cloud}
\citation{21izquierdo2013engaging}
\@writefile{toc}{\contentsline {section}{\numberline {4.2}Resultado}{38}{section.4.2}}
\newlabel{sec:trabalhosRelacionados_resultados}{{4.2}{38}{Resultado}{section.4.2}{}}
\@writefile{toc}{\contentsline {subsection}{\numberline {4.2.1}Quais s\IeC {\~a}o as plataformas onde as atuais solu\IeC {\c c}\IeC {\~o}es rodam?}{38}{subsection.4.2.1}}
\newlabel{sec:trabalhosRelacionados_resultados_questao1}{{4.2.1}{38}{Quais são as plataformas onde as atuais soluções rodam?}{subsection.4.2.1}{}}
\@writefile{brf}{\backcite{4nicolaescu2013browser}{{38}{4.2.1}{subsection.4.2.1}}}
\@writefile{brf}{\backcite{6jiang2014stigmergy}{{38}{4.2.1}{subsection.4.2.1}}}
\acro@used@twice{uml}{38}{38}{40}
\@@wrindexm@m{monografia}{uml@{UML}|hyperpage}{38}
\@writefile{brf}{\backcite{8osman2013web}{{38}{4.2.1}{subsection.4.2.1}}}
\acro@used@twice{uml}{38}{38}{40}
\@@wrindexm@m{monografia}{uml@{UML}|hyperpage}{38}
\@writefile{brf}{\backcite{25azevedo2013development}{{38}{4.2.1}{subsection.4.2.1}}}
\@writefile{brf}{\backcite{13maroti2014online}{{38}{4.2.1}{subsection.4.2.1}}}
\BKM@entry{id=37,dest={73756273656374696F6E2E342E322E32},srcline={84}}{517561697320735C3334336F206173207465636E6F6C6F676961732071756520617320736F6C755C3334375C3336356573207574696C697A616D3F}
\citation{4nicolaescu2013browser}
\citation{1michaux2011semantically}
\citation{8osman2013web}
\citation{25azevedo2013development}
\citation{13maroti2014online}
\citation{21izquierdo2013engaging}
\citation{28lins2011ssc4cloud}
\@writefile{brf}{\backcite{22cognini2013collaborative}{{39}{4.2.1}{subsection.4.2.1}}}
\@writefile{brf}{\backcite{17doweling2013collaborative}{{39}{4.2.1}{subsection.4.2.1}}}
\acro@used@once{cobpm}{39}{39}{41}
\@@wrindexm@m{monografia}{cobpm@{coBPM}|hyperpage}{39}
\@writefile{brf}{\backcite{3dollmann2011collaborative}{{39}{4.2.1}{subsection.4.2.1}}}
\@writefile{brf}{\backcite{28lins2011ssc4cloud}{{39}{4.2.1}{subsection.4.2.1}}}
\@writefile{brf}{\backcite{21izquierdo2013engaging}{{39}{4.2.1}{subsection.4.2.1}}}
\acro@used@once{dsml}{39}{39}{41}
\@@wrindexm@m{monografia}{dsml@{DSML}|hyperpage}{39}
\@writefile{toc}{\contentsline {subsection}{\numberline {4.2.2}Quais s\IeC {\~a}o as tecnologias que as solu\IeC {\c c}\IeC {\~o}es utilizam?}{39}{subsection.4.2.2}}
\newlabel{sec:trabalhosRelacionados_resultados_questao2}{{4.2.2}{39}{Quais são as tecnologias que as soluções utilizam?}{subsection.4.2.2}{}}
\@writefile{brf}{\backcite{4nicolaescu2013browser}{{39}{4.2.2}{subsection.4.2.2}}}
\acro@used@once{sdk}{39}{39}{41}
\@@wrindexm@m{monografia}{sdk@{SDK}|hyperpage}{39}
\acro@used@twice{sdk}{39}{39}{41}
\@@wrindexm@m{monografia}{sdk@{SDK}|hyperpage}{39}
\@writefile{brf}{\backcite{1michaux2011semantically}{{39}{4.2.2}{subsection.4.2.2}}}
\acro@used@once{mde}{39}{39}{41}
\@@wrindexm@m{monografia}{mde@{MDE}|hyperpage}{39}
\@writefile{brf}{\backcite{8osman2013web}{{39}{4.2.2}{subsection.4.2.2}}}
\acro@used@twice{uml}{39}{39}{41}
\@@wrindexm@m{monografia}{uml@{UML}|hyperpage}{39}
\@writefile{brf}{\backcite{25azevedo2013development}{{39}{4.2.2}{subsection.4.2.2}}}
\@writefile{brf}{\backcite{13maroti2014online}{{39}{4.2.2}{subsection.4.2.2}}}
\acro@used@once{ajax}{39}{39}{41}
\acro@used@twice{xml}{39}{39}{41}
\@@wrindexm@m{monografia}{xml@{XML}|hyperpage}{39}
\@@wrindexm@m{monografia}{ajax@{AJAX}|hyperpage}{39}
\@writefile{brf}{\backcite{21izquierdo2013engaging}{{39}{4.2.2}{subsection.4.2.2}}}
\acro@used@twice{dsml}{39}{39}{41}
\@@wrindexm@m{monografia}{dsml@{DSML}|hyperpage}{39}
\BKM@entry{id=38,dest={73756273656374696F6E2E342E322E33},srcline={95}}{517565206573747261745C33353167696173207573616461732070617261207472617461722061206564695C3334375C3334336F20636F6C61626F7261746976613F}
\citation{8osman2013web}
\citation{4nicolaescu2013browser}
\citation{3dollmann2011collaborative}
\citation{17doweling2013collaborative}
\citation{6jiang2014stigmergy}
\citation{13maroti2014online}
\citation{28lins2011ssc4cloud}
\BKM@entry{id=39,dest={73656374696F6E2E342E33},srcline={109}}{436F6E7369646572615C3334375C333635657320646F204361705C33353574756C6F}
\citation{4nicolaescu2013browser}
\citation{6jiang2014stigmergy}
\citation{8osman2013web}
\citation{25azevedo2013development}
\citation{13maroti2014online}
\citation{22cognini2013collaborative}
\@writefile{brf}{\backcite{28lins2011ssc4cloud}{{40}{4.2.2}{subsection.4.2.2}}}
\acro@used@once{bpmn}{40}{40}{42}
\@@wrindexm@m{monografia}{bpmn@{BPMN}|hyperpage}{40}
\@writefile{toc}{\contentsline {subsection}{\numberline {4.2.3}Que estrat\IeC {\'e}gias usadas para tratar a edi\IeC {\c c}\IeC {\~a}o colaborativa?}{40}{subsection.4.2.3}}
\newlabel{sec:trabalhosRelacionados_resultados_questao3}{{4.2.3}{40}{Que estratégias usadas para tratar a edição colaborativa?}{subsection.4.2.3}{}}
\@writefile{brf}{\backcite{8osman2013web}{{40}{4.2.3}{subsection.4.2.3}}}
\@writefile{brf}{\backcite{4nicolaescu2013browser}{{40}{4.2.3}{subsection.4.2.3}}}
\acro@used@once{xmpp}{40}{40}{42}
\@@wrindexm@m{monografia}{xmpp@{XMPP}|hyperpage}{40}
\acro@used@twice{xml}{40}{40}{42}
\@@wrindexm@m{monografia}{xml@{XML}|hyperpage}{40}
\acro@used@twice{xmpp}{40}{40}{42}
\@@wrindexm@m{monografia}{xmpp@{XMPP}|hyperpage}{40}
\@writefile{brf}{\backcite{3dollmann2011collaborative}{{40}{4.2.3}{subsection.4.2.3}}}
\acro@used@twice{cobpm}{40}{40}{42}
\@@wrindexm@m{monografia}{cobpm@{coBPM}|hyperpage}{40}
\@writefile{brf}{\backcite{17doweling2013collaborative}{{40}{4.2.3}{subsection.4.2.3}}}
\@writefile{brf}{\backcite{6jiang2014stigmergy}{{40}{4.2.3}{subsection.4.2.3}}}
\@writefile{brf}{\backcite{13maroti2014online}{{40}{4.2.3}{subsection.4.2.3}}}
\@writefile{brf}{\backcite{28lins2011ssc4cloud}{{40}{4.2.3}{subsection.4.2.3}}}
\citation{1michaux2011semantically}
\citation{4nicolaescu2013browser}
\citation{6jiang2014stigmergy}
\citation{8osman2013web}
\citation{13maroti2014online}
\citation{17doweling2013collaborative}
\citation{25azevedo2013development}
\citation{7brosch2012conflict}
\citation{8osman2013web}
\citation{8osman2013web}
\@writefile{toc}{\contentsline {section}{\numberline {4.3}Considera\IeC {\c c}\IeC {\~o}es do Cap\IeC {\'\i }tulo}{41}{section.4.3}}
\newlabel{sec:trabalhosRelacionados_conclusao}{{4.3}{41}{Considerações do Capítulo}{section.4.3}{}}
\@writefile{brf}{\backcite{4nicolaescu2013browser, 6jiang2014stigmergy, 8osman2013web, 25azevedo2013development, 13maroti2014online, 22cognini2013collaborative}{{41}{4.3}{section.4.3}}}
\@writefile{brf}{\backcite{4nicolaescu2013browser, 6jiang2014stigmergy, 8osman2013web, 25azevedo2013development, 13maroti2014online, 22cognini2013collaborative}{{41}{4.3}{section.4.3}}}
\@writefile{brf}{\backcite{4nicolaescu2013browser, 6jiang2014stigmergy, 8osman2013web, 25azevedo2013development, 13maroti2014online, 22cognini2013collaborative}{{41}{4.3}{section.4.3}}}
\@writefile{brf}{\backcite{4nicolaescu2013browser, 6jiang2014stigmergy, 8osman2013web, 25azevedo2013development, 13maroti2014online, 22cognini2013collaborative}{{41}{4.3}{section.4.3}}}
\@writefile{brf}{\backcite{4nicolaescu2013browser, 6jiang2014stigmergy, 8osman2013web, 25azevedo2013development, 13maroti2014online, 22cognini2013collaborative}{{41}{4.3}{section.4.3}}}
\@writefile{brf}{\backcite{4nicolaescu2013browser, 6jiang2014stigmergy, 8osman2013web, 25azevedo2013development, 13maroti2014online, 22cognini2013collaborative}{{41}{4.3}{section.4.3}}}
\@writefile{brf}{\backcite{1michaux2011semantically,4nicolaescu2013browser,6jiang2014stigmergy,8osman2013web,13maroti2014online,17doweling2013collaborative,25azevedo2013development}{{41}{4.3}{section.4.3}}}
\@writefile{brf}{\backcite{1michaux2011semantically,4nicolaescu2013browser,6jiang2014stigmergy,8osman2013web,13maroti2014online,17doweling2013collaborative,25azevedo2013development}{{41}{4.3}{section.4.3}}}
\@writefile{brf}{\backcite{1michaux2011semantically,4nicolaescu2013browser,6jiang2014stigmergy,8osman2013web,13maroti2014online,17doweling2013collaborative,25azevedo2013development}{{41}{4.3}{section.4.3}}}
\@writefile{brf}{\backcite{1michaux2011semantically,4nicolaescu2013browser,6jiang2014stigmergy,8osman2013web,13maroti2014online,17doweling2013collaborative,25azevedo2013development}{{41}{4.3}{section.4.3}}}
\@writefile{brf}{\backcite{1michaux2011semantically,4nicolaescu2013browser,6jiang2014stigmergy,8osman2013web,13maroti2014online,17doweling2013collaborative,25azevedo2013development}{{41}{4.3}{section.4.3}}}
\@writefile{brf}{\backcite{1michaux2011semantically,4nicolaescu2013browser,6jiang2014stigmergy,8osman2013web,13maroti2014online,17doweling2013collaborative,25azevedo2013development}{{41}{4.3}{section.4.3}}}
\@writefile{brf}{\backcite{1michaux2011semantically,4nicolaescu2013browser,6jiang2014stigmergy,8osman2013web,13maroti2014online,17doweling2013collaborative,25azevedo2013development}{{41}{4.3}{section.4.3}}}
\@writefile{brf}{\backcite{7brosch2012conflict}{{41}{4.3}{section.4.3}}}
\@writefile{brf}{\backcite{8osman2013web}{{41}{4.3}{section.4.3}}}
\acro@used@twice{uml}{41}{41}{43}
\@@wrindexm@m{monografia}{uml@{UML}|hyperpage}{41}
\acro@used@twice{uml}{41}{41}{43}
\@@wrindexm@m{monografia}{uml@{UML}|hyperpage}{41}
\@writefile{brf}{\backcite{8osman2013web}{{41}{4.3}{section.4.3}}}
\BKM@entry{id=40,dest={636861707465722E35},srcline={2}}{446573656E766F6C76696D656E746F205072656C696D696E6172}
\BKM@entry{id=41,dest={73656374696F6E2E352E31},srcline={8}}{4661736520646520436F6E6365705C3334375C3334336F}
\BKM@entry{id=42,dest={73756273656374696F6E2E352E312E31},srcline={12}}{4465736372695C3334375C3334336F20646F2050726F626C656D61}
\citation{larman2007utilizando}
\citation{19bartelt2013}
\citation{8osman2013web}
\citation{19bartelt2013}
\@writefile{toc}{\setlength  {\cftchapterindent }{0em} \setlength  {\cftchapternumwidth }{\cftlastnumwidth }}
\@writefile{toc}{\contentsline {chapter}{\chapternumberline {5}\MakeTextUppercase  {Desenvolvimento Preliminar}}{43}{chapter.5}}
\newlabel{desenvolvimentoPreliminar}{{5}{43}{Desenvolvimento Preliminar}{chapter.5}{}}
\@writefile{toc}{\contentsline {section}{\numberline {5.1}Fase de Concep\IeC {\c c}\IeC {\~a}o}{43}{section.5.1}}
\newlabel{sec:concepcao}{{5.1}{43}{Fase de Concepção}{section.5.1}{}}
\@writefile{toc}{\contentsline {subsection}{\numberline {5.1.1}Descri\IeC {\c c}\IeC {\~a}o do Problema}{43}{subsection.5.1.1}}
\newlabel{sub:problema}{{5.1.1}{43}{Descrição do Problema}{subsection.5.1.1}{}}
\acro@used@twice{case}{43}{43}{45}
\@@wrindexm@m{monografia}{case@{CASE}|hyperpage}{43}
\@writefile{brf}{\backcite{larman2007utilizando}{{43}{5.1.1}{subsection.5.1.1}}}
\@writefile{brf}{\backcite{19bartelt2013}{{43}{5.1.1}{subsection.5.1.1}}}
\@writefile{brf}{\backcite{8osman2013web}{{43}{5.1.1}{subsection.5.1.1}}}
\@writefile{brf}{\backcite{19bartelt2013}{{43}{5.1.1}{subsection.5.1.1}}}
\BKM@entry{id=43,dest={73756273656374696F6E2E352E312E32},srcline={27}}{5669735C3334336F20476572616C}
\BKM@entry{id=44,dest={73756273756273656374696F6E2E352E312E322E31},srcline={46}}{53746F7279426F617264}
\BKM@entry{id=45,dest={73756273756273656374696F6E2E352E312E322E32},srcline={75}}{486973745C33363372696173206465205573755C33343172696F73}
\@writefile{toc}{\contentsline {subsection}{\numberline {5.1.2}Vis\IeC {\~a}o Geral}{44}{subsection.5.1.2}}
\newlabel{sub:visaoGeral}{{5.1.2}{44}{Visão Geral}{subsection.5.1.2}{}}
\@writefile{lof}{\contentsline {figure}{\numberline {9}{\ignorespaces Vis\IeC {\~a}o geral de solu\IeC {\c c}\IeC {\~a}o da Ferramenta}}{44}{figure.5.9}}
\newlabel{fig:visaoGeral}{{9}{44}{Visão geral de solução da Ferramenta}{figure.5.9}{}}
\@writefile{toc}{\contentsline {subsubsection}{\numberline {5.1.2.1}\textit  {StoryBoard}}{44}{subsubsection.5.1.2.1}}
\newlabel{subsub:storyBoard}{{5.1.2.1}{44}{\textit {StoryBoard}}{subsubsection.5.1.2.1}{}}
\@writefile{lof}{\contentsline {figure}{\numberline {10}{\ignorespaces \textit  {StoryBoards} da Ferramenta}}{45}{figure.5.10}}
\newlabel{fig:macrostoryboards}{{10}{45}{\textit {StoryBoards} da Ferramenta}{figure.5.10}{}}
\@writefile{toc}{\contentsline {subsubsection}{\numberline {5.1.2.2}Hist\IeC {\'o}rias de Usu\IeC {\'a}rios}{45}{subsubsection.5.1.2.2}}
\newlabel{subsub:estoriaDeUsuario}{{5.1.2.2}{45}{Histórias de Usuários}{subsubsection.5.1.2.2}{}}
\BKM@entry{id=46,dest={73656374696F6E2E352E32},srcline={117}}{4661736520646520456C61626F72615C3334375C3334336F202D2049746572615C3334375C3334336F2031}
\BKM@entry{id=47,dest={73756273656374696F6E2E352E322E31},srcline={123}}{41727175697465747572612064612046657272616D656E7461}
\citation{kozovits2003arquitetura}
\@writefile{lot}{\contentsline {table}{\numberline {1}{\ignorespaces Hist\IeC {\'o}rias de Usu\IeC {\'a}rios}}{46}{table.5.1}}
\newlabel{tab:historiaUsuario}{{1}{46}{Histórias de Usuários}{table.5.1}{}}
\@writefile{toc}{\contentsline {section}{\numberline {5.2}Fase de Elabora\IeC {\c c}\IeC {\~a}o - Itera\IeC {\c c}\IeC {\~a}o 1}{46}{section.5.2}}
\newlabel{sec:elaboracao}{{5.2}{46}{Fase de Elaboração - Iteração 1}{section.5.2}{}}
\@writefile{toc}{\contentsline {subsection}{\numberline {5.2.1}Arquitetura da Ferramenta}{46}{subsection.5.2.1}}
\newlabel{sub:arquitetura}{{5.2.1}{46}{Arquitetura da Ferramenta}{subsection.5.2.1}{}}
\@writefile{brf}{\backcite{kozovits2003arquitetura}{{46}{5.2.1}{subsection.5.2.1}}}
\BKM@entry{id=48,dest={73756273656374696F6E2E352E322E32},srcline={140}}{4D6F64656C6F20646520446F6D5C3335356E696F2064612046657272616D656E7461}
\BKM@entry{id=49,dest={73656374696F6E2E352E33},srcline={149}}{436F6E7369646572615C3334375C333635657320646F204361705C33353574756C6F}
\@writefile{lof}{\contentsline {figure}{\numberline {11}{\ignorespaces Arquitetura da ferramenta refinada}}{47}{figure.5.11}}
\newlabel{fig:arquiteturaRefinada}{{11}{47}{Arquitetura da ferramenta refinada}{figure.5.11}{}}
\@writefile{toc}{\contentsline {subsection}{\numberline {5.2.2}Modelo de Dom\IeC {\'\i }nio da Ferramenta}{47}{subsection.5.2.2}}
\newlabel{sub:modeloDominio}{{5.2.2}{47}{Modelo de Domínio da Ferramenta}{subsection.5.2.2}{}}
\acro@used@twice{uml}{47}{47}{49}
\@@wrindexm@m{monografia}{uml@{UML}|hyperpage}{47}
\@writefile{lof}{\contentsline {figure}{\numberline {12}{\ignorespaces Modelo de dom\IeC {\'\i }nio da ferramenta}}{48}{figure.5.12}}
\newlabel{fig:ModeloDominio}{{12}{48}{Modelo de domínio da ferramenta}{figure.5.12}{}}
\@writefile{toc}{\contentsline {section}{\numberline {5.3}Considera\IeC {\c c}\IeC {\~o}es do Cap\IeC {\'\i }tulo}{48}{section.5.3}}
\newlabel{sec:conclusaoCapitulo}{{5.3}{48}{Considerações do Capítulo}{section.5.3}{}}
\BKM@entry{id=50,dest={636861707465722E36},srcline={2}}{436F6E636C75735C3336356573205072656C696D696E61726573}
\BKM@entry{id=51,dest={73656374696F6E2E362E31},srcline={9}}{43726F6E6F6772616D61}
\bibdata{abntex2-options,bibliografia,abntex2-modelo-references}
\@writefile{toc}{\setlength  {\cftchapterindent }{0em} \setlength  {\cftchapternumwidth }{\cftlastnumwidth }}
\@writefile{toc}{\contentsline {chapter}{\chapternumberline {6}\MakeTextUppercase  {Conclus\IeC {\~o}es Preliminares}}{49}{chapter.6}}
\newlabel{conclusao}{{6}{49}{Conclusões Preliminares}{chapter.6}{}}
\acro@used@twice{uml}{49}{49}{51}
\@@wrindexm@m{monografia}{uml@{UML}|hyperpage}{49}
\acro@used@twice{uml}{49}{49}{51}
\@@wrindexm@m{monografia}{uml@{UML}|hyperpage}{49}
\@writefile{toc}{\contentsline {section}{\numberline {6.1}Cronograma}{49}{section.6.1}}
\newlabel{sec:cronograma}{{6.1}{49}{Cronograma}{section.6.1}{}}
\@writefile{toc}{\vspace  {\cftbeforechapterskip }}
\@writefile{lot}{\contentsline {table}{\numberline {2}{\ignorespaces Cronograma de Atividades}}{50}{table.6.2}}
\newlabel{tab:cronograma}{{2}{50}{Cronograma de Atividades}{table.6.2}{}}
\acro@used@twice{uml}{50}{50}{52}
\@@wrindexm@m{monografia}{uml@{UML}|hyperpage}{50}
\acro@used@twice{tcc}{50}{50}{52}
\@@wrindexm@m{monografia}{tcc@{TCC}|hyperpage}{50}
\acro@used@twice{tcc}{50}{50}{52}
\@@wrindexm@m{monografia}{tcc@{TCC}|hyperpage}{50}
\BKM@entry{id=52,dest={73656374696F6E2A2E37},srcline={3}}{52656665725C3335326E63696173}
\bibcite{ambler2002agile}{Ambler 2002}
\bibciteEXPL{ambler2002agile}{Ambler}
\bibciteIMPL{ambler2002agile}{AMBLER}
\bibciteYEAR{ambler2002agile}{2002}
\bibcite{25azevedo2013development}{Azevedo et al. 2013}
\bibciteEXPL{25azevedo2013development}{Azevedo et al.}
\bibciteIMPL{25azevedo2013development}{AZEVEDO et al.}
\bibciteYEAR{25azevedo2013development}{2013}
\bibcite{19bartelt2013}{Bartelt, Vogel e Warnecke 2013}
\bibciteEXPL{19bartelt2013}{Bartelt, Vogel e Warnecke}
\bibciteIMPL{19bartelt2013}{BARTELT; VOGEL; WARNECKE}
\bibciteYEAR{19bartelt2013}{2013}
\bibcite{bezerra2007principios}{Bezerra 2007}
\bibciteEXPL{bezerra2007principios}{Bezerra}
\bibciteIMPL{bezerra2007principios}{BEZERRA}
\bibciteYEAR{bezerra2007principios}{2007}
\bibcite{booch2000uml}{Booch, Rumbaugh e Jacobson 2000}
\bibciteEXPL{booch2000uml}{Booch, Rumbaugh e Jacobson}
\bibciteIMPL{booch2000uml}{BOOCH; RUMBAUGH; JACOBSON}
\bibciteYEAR{booch2000uml}{2000}
\bibcite{booch2006uml}{Booch, Rumbaugh e Jacobson 2006}
\bibciteEXPL{booch2006uml}{Booch, Rumbaugh e Jacobson}
\bibciteIMPL{booch2006uml}{BOOCH; RUMBAUGH; JACOBSON}
\bibciteYEAR{booch2006uml}{2006}
\bibcite{braga2013proposta}{Braga e Silveira 2013}
\bibciteEXPL{braga2013proposta}{Braga e Silveira}
\bibciteIMPL{braga2013proposta}{BRAGA; SILVEIRA}
\bibciteYEAR{braga2013proposta}{2013}
\bibcite{7brosch2012conflict}{Brosch et al. 2012}
\bibciteEXPL{7brosch2012conflict}{Brosch et al.}
\bibciteIMPL{7brosch2012conflict}{BROSCH et al.}
\bibciteYEAR{7brosch2012conflict}{2012}
\bibcite{cardoso2003uml}{Cardoso 2003}
\bibciteEXPL{cardoso2003uml}{Cardoso}
\bibciteIMPL{cardoso2003uml}{CARDOSO}
\bibciteYEAR{cardoso2003uml}{2003}
\bibcite{22cognini2013collaborative}{Cognini et al. 2013}
\bibciteEXPL{22cognini2013collaborative}{Cognini et al.}
\bibciteIMPL{22cognini2013collaborative}{COGNINI et al.}
\bibciteYEAR{22cognini2013collaborative}{2013}
\bibcite{historiasUsuarios2004}{Cohn 2004}
\bibciteEXPL{historiasUsuarios2004}{Cohn}
\bibciteIMPL{historiasUsuarios2004}{COHN}
\bibciteYEAR{historiasUsuarios2004}{2004}
\bibcite{coulouris2007sistemas}{Coulouris, Dollimore e Kindberg 2007}
\bibciteEXPL{coulouris2007sistemas}{Coulouris, Dollimore e Kindberg}
\bibciteIMPL{coulouris2007sistemas}{COULOURIS; DOLLIMORE; KINDBERG}
\bibciteYEAR{coulouris2007sistemas}{2007}
\bibcite{20dirixawareness}{Dirix 2013}
\bibciteEXPL{20dirixawareness}{Dirix}
\bibciteIMPL{20dirixawareness}{DIRIX}
\bibciteYEAR{20dirixawareness}{2013}
\bibcite{3dollmann2011collaborative}{Dollmann et al. 2011}
\bibciteEXPL{3dollmann2011collaborative}{Dollmann et al.}
\bibciteIMPL{3dollmann2011collaborative}{DOLLMANN et al.}
\bibciteYEAR{3dollmann2011collaborative}{2011}
\@writefile{toc}{\setlength  {\cftchapterindent }{\cftlastnumwidth } \setlength  {\cftchapternumwidth }{2em}}
\@writefile{toc}{\contentsline {chapter}{\uppercase {Refer\^encias}}{51}{section*.7}}
\bibcite{17doweling2013collaborative}{D{\"o}weling et al. 2013}
\bibciteEXPL{17doweling2013collaborative}{D{\"o}weling et al.}
\bibciteIMPL{17doweling2013collaborative}{D{\"O}WELING et al.}
\bibciteYEAR{17doweling2013collaborative}{2013}
\bibcite{21izquierdo2013engaging}{Izquierdo et al. 2013}
\bibciteEXPL{21izquierdo2013engaging}{Izquierdo et al.}
\bibciteIMPL{21izquierdo2013engaging}{IZQUIERDO et al.}
\bibciteYEAR{21izquierdo2013engaging}{2013}
\bibcite{6jiang2014stigmergy}{Jiang, Zhang e Zhao 2014}
\bibciteEXPL{6jiang2014stigmergy}{Jiang, Zhang e Zhao}
\bibciteIMPL{6jiang2014stigmergy}{JIANG; ZHANG; ZHAO}
\bibciteYEAR{6jiang2014stigmergy}{2014}
\bibcite{juniorcompartilhamento}{Junior e P{\'e}ricas 2004}
\bibciteEXPL{juniorcompartilhamento}{Junior e P{\'e}ricas}
\bibciteIMPL{juniorcompartilhamento}{JUNIOR; P{\'E}RICAS}
\bibciteYEAR{juniorcompartilhamento}{2004}
\bibcite{kamienski2005colaboraccao}{Kamienski et al. 2005}
\bibciteEXPL{kamienski2005colaboraccao}{Kamienski et al.}
\bibciteIMPL{kamienski2005colaboraccao}{KAMIENSKI et al.}
\bibciteYEAR{kamienski2005colaboraccao}{2005}
\bibcite{kozovits2003arquitetura}{Kozovits e Feij{\'o} 2003}
\bibciteEXPL{kozovits2003arquitetura}{Kozovits e Feij{\'o}}
\bibciteIMPL{kozovits2003arquitetura}{KOZOVITS; FEIJ{\'O}}
\bibciteYEAR{kozovits2003arquitetura}{2003}
\bibcite{larman2007utilizando}{Larman 2007}
\bibciteEXPL{larman2007utilizando}{Larman}
\bibciteIMPL{larman2007utilizando}{LARMAN}
\bibciteYEAR{larman2007utilizando}{2007}
\bibcite{28lins2011ssc4cloud}{Lins et al. 2011}
\bibciteEXPL{28lins2011ssc4cloud}{Lins et al.}
\bibciteIMPL{28lins2011ssc4cloud}{LINS et al.}
\bibciteYEAR{28lins2011ssc4cloud}{2011}
\bibcite{13maroti2014online}{Mar{\'o}ti et al. 2014}
\bibciteEXPL{13maroti2014online}{Mar{\'o}ti et al.}
\bibciteIMPL{13maroti2014online}{MAR{\'O}TI et al.}
\bibciteYEAR{13maroti2014online}{2014}
\bibcite{storyBoardsmedeiros}{Medeiros et al.}
\bibciteEXPL{storyBoardsmedeiros}{Medeiros et al.}
\bibciteIMPL{storyBoardsmedeiros}{MEDEIROS et al.}
\bibciteYEAR{storyBoardsmedeiros}{}
\bibcite{1michaux2011semantically}{Michaux et al. 2011}
\bibciteEXPL{1michaux2011semantically}{Michaux et al.}
\bibciteIMPL{1michaux2011semantically}{MICHAUX et al.}
\bibciteYEAR{1michaux2011semantically}{2011}
\bibcite{jxta2015}{Microsystems 2015}
\bibciteEXPL{jxta2015}{Microsystems}
\bibciteIMPL{jxta2015}{MICROSYSTEMS}
\bibciteYEAR{jxta2015}{2015}
\bibcite{4nicolaescu2013browser}{Nicolaescu, Derntl e Klamma 2013}
\bibciteEXPL{4nicolaescu2013browser}{Nicolaescu, Derntl e Klamma}
\bibciteIMPL{4nicolaescu2013browser}{NICOLAESCU; DERNTL; KLAMMA}
\bibciteYEAR{4nicolaescu2013browser}{2013}
\bibcite{omg2015}{OMG 2015}
\bibciteEXPL{omg2015}{OMG}
\bibciteIMPL{omg2015}{OMG}
\bibciteYEAR{omg2015}{2015}
\bibcite{8osman2013web}{Osman 2013}
\bibciteEXPL{8osman2013web}{Osman}
\bibciteIMPL{8osman2013web}{OSMAN}
\bibciteYEAR{8osman2013web}{2013}
\bibcite{petersen2008systematic}{Petersen et al. 2008}
\bibciteEXPL{petersen2008systematic}{Petersen et al.}
\bibciteIMPL{petersen2008systematic}{PETERSEN et al.}
\bibciteYEAR{petersen2008systematic}{2008}
\bibcite{schach2009engenharia}{Schach 2009}
\bibciteEXPL{schach2009engenharia}{Schach}
\bibciteIMPL{schach2009engenharia}{SCHACH}
\bibciteYEAR{schach2009engenharia}{2009}
\bibcite{sommerville2007engenharia}{Sommerville 2007}
\bibciteEXPL{sommerville2007engenharia}{Sommerville}
\bibciteIMPL{sommerville2007engenharia}{SOMMERVILLE}
\bibciteYEAR{sommerville2007engenharia}{2007}
\bibcite{tanenbaum2007sistemas}{Tanenbaum e Steen 2007}
\bibciteEXPL{tanenbaum2007sistemas}{Tanenbaum e Steen}
\bibciteIMPL{tanenbaum2007sistemas}{TANENBAUM; STEEN}
\bibciteYEAR{tanenbaum2007sistemas}{2007}
\bibcite{wazlawick2011analise}{Wazlawick 2011}
\bibciteEXPL{wazlawick2011analise}{Wazlawick}
\bibciteIMPL{wazlawick2011analise}{WAZLAWICK}
\bibciteYEAR{wazlawick2011analise}{2011}
\newlabel{LastPage}{{}{53}{}{page.53}{}}
\xdef\lastpage@lastpage{53}
\xdef\lastpage@lastpageHy{53}
\bibstyle{abntex2-alf}
\memsetcounter{lastsheet}{55}
\memsetcounter{lastpage}{53}
